teamRISK-V_project1-orig/codes/CPU.vcd
$date
	Wed Dec 09 21:21:16 2020
$end
$version
	Icarus Verilog
$end
$timescale
	1s
$end
$scope module Sign_Extend $end
$var wire 12 ! data_i [11:0] $end
$var wire 32 " data_o [31:0] $end
$upscope $end
$scope module TestBench $end
$var reg 1 # Clk $end
$var reg 1 $ Reset $end
$var reg 1 % Start $end
$var integer 32 & counter [31:0] $end
$var integer 32 ' flush [31:0] $end
$var integer 32 ( i [31:0] $end
$var integer 32 ) outfile [31:0] $end
$var integer 32 * stall [31:0] $end
$scope module CPU $end
$var wire 1 # clk_i $end
$var wire 1 $ rst_i $end
$var wire 1 % start_i $end
$scope module ALU $end
$var wire 32 + data_o [31:0] $end
$var wire 32 , data1_i [31:0] $end
$var wire 32 - data0_i [31:0] $end
$var wire 4 . ALUCtrl_i [3:0] $end
$var reg 32 / data_reg [31:0] $end
$upscope $end
$scope module ALU_Control $end
$var wire 10 0 funct [9:0] $end
$var wire 2 1 ALUOp_i [1:0] $end
$var wire 4 2 ALUCtrl_o [3:0] $end
$upscope $end
$scope module AND $end
$var wire 1 3 bool_o $end
$var wire 1 4 data1_i $end
$var wire 1 5 data0_i $end
$upscope $end
$scope module Add_PC1 $end
$var wire 32 6 data1_in [31:0] $end
$var wire 32 7 data_o [31:0] $end
$var wire 32 8 data0_in [31:0] $end
$upscope $end
$scope module Add_PC2 $end
$var wire 32 9 data0_in [31:0] $end
$var wire 32 : data_o [31:0] $end
$var wire 32 ; data1_in [31:0] $end
$upscope $end
$scope module Control $end
$var wire 1 < RegWrite_o $end
$var wire 7 = Op_i [6:0] $end
$var wire 1 > NoOP $end
$var wire 1 ? MemtoReg_o $end
$var wire 1 @ MemWrite_o $end
$var wire 1 A MemRead_o $end
$var wire 1 5 Branch_o $end
$var wire 1 B ALUSrc_o $end
$var wire 2 C ALUOp_o [1:0] $end
$upscope $end
$scope module Data_Memory $end
$var wire 1 # clk_i $end
$var wire 32 D data_o [31:0] $end
$var wire 32 E data_i [31:0] $end
$var wire 32 F addr_i [31:0] $end
$var wire 1 G MemWrite_i $end
$var wire 1 H MemRead_i $end
$upscope $end
$scope module EX_MEM $end
$var wire 32 I ALUout_i [31:0] $end
$var wire 1 # clk_i $end
$var wire 1 $ rst_i $end
$var wire 32 J rs2_data_i [31:0] $end
$var wire 5 K rd_addr_i [4:0] $end
$var wire 1 L RegWrite_i $end
$var wire 1 M MemtoReg_i $end
$var wire 1 N MemWrite_i $end
$var wire 1 O MemRead_i $end
$var reg 32 P ALUout_o [31:0] $end
$var reg 1 H MemRead_o $end
$var reg 1 G MemWrite_o $end
$var reg 1 Q MemtoReg_o $end
$var reg 1 R RegWrite_o $end
$var reg 5 S rd_addr_o [4:0] $end
$var reg 32 T rs2_data_o [31:0] $end
$upscope $end
$scope module Forward $end
$var wire 1 R EXMEM_RegWrite_i $end
$var wire 5 U EXMEM_rd_addr_i [4:0] $end
$var wire 1 V EX_hazardA $end
$var wire 1 W EX_hazardB $end
$var wire 1 X MEM_hazardA $end
$var wire 1 Y MEM_hazardB $end
$var wire 5 Z MEMWB_rd_addr_i [4:0] $end
$var wire 1 [ MEMWB_RegWrite_i $end
$var wire 5 \ IDEX_rs2_addr_i [4:0] $end
$var wire 5 ] IDEX_rs1_addr_i [4:0] $end
$var wire 2 ^ ForwardB_o [1:0] $end
$var wire 2 _ ForwardA_o [1:0] $end
$upscope $end
$scope module Hazard $end
$var wire 1 > NoOP_o $end
$var wire 1 ` PCWrite_o $end
$var wire 1 $ rst_i $end
$var wire 5 a rs2_addr_i [4:0] $end
$var wire 5 b rs1_addr_i [4:0] $end
$var wire 1 c Stall_o $end
$var wire 5 d IDEX_rd_addr_i [4:0] $end
$var wire 1 O IDEX_MemRead_i $end
$upscope $end
$scope module ID_EX $end
$var wire 2 e ALUOp_i [1:0] $end
$var wire 1 B ALUSrc_i $end
$var wire 1 A MemRead_i $end
$var wire 1 @ MemWrite_i $end
$var wire 1 ? MemtoReg_i $end
$var wire 1 < RegWrite_i $end
$var wire 1 # clk_i $end
$var wire 10 f funct_i [9:0] $end
$var wire 1 $ rst_i $end
$var wire 32 g rs2_data_i [31:0] $end
$var wire 5 h rs2_addr_i [4:0] $end
$var wire 32 i rs1_data_i [31:0] $end
$var wire 5 j rs1_addr_i [4:0] $end
$var wire 5 k rd_addr_i [4:0] $end
$var wire 32 l imm_i [31:0] $end
$var reg 2 m ALUOp_o [1:0] $end
$var reg 1 n ALUSrc_o $end
$var reg 1 O MemRead_o $end
$var reg 1 N MemWrite_o $end
$var reg 1 M MemtoReg_o $end
$var reg 1 L RegWrite_o $end
$var reg 10 o funct_o [9:0] $end
$var reg 32 p imm_o [31:0] $end
$var reg 5 q rd_addr_o [4:0] $end
$var reg 5 r rs1_addr_o [4:0] $end
$var reg 32 s rs1_data_o [31:0] $end
$var reg 5 t rs2_addr_o [4:0] $end
$var reg 32 u rs2_data_o [31:0] $end
$upscope $end
$scope module IF_ID $end
$var wire 1 3 Flush_i $end
$var wire 1 v IFID_Write_i $end
$var wire 1 # clk_i $end
$var wire 1 $ rst_i $end
$var wire 32 w instruc_i [31:0] $end
$var wire 32 x PC_i [31:0] $end
$var reg 32 y PC_o [31:0] $end
$var reg 32 z instruc_o [31:0] $end
$upscope $end
$scope module Imm_Gen $end
$var wire 32 { instruc_i [31:0] $end
$var wire 32 | imm_o [31:0] $end
$upscope $end
$scope module Instruction_Memory $end
$var wire 32 } instr_o [31:0] $end
$var wire 32 ~ addr_i [31:0] $end
$upscope $end
$scope module MEM_WB $end
$var wire 32 !" ALUout_i [31:0] $end
$var wire 32 "" Memout_i [31:0] $end
$var wire 1 Q MemtoReg_i $end
$var wire 1 R RegWrite_i $end
$var wire 1 # clk_i $end
$var wire 5 #" rd_addr_i [4:0] $end
$var wire 1 $ rst_i $end
$var reg 32 $" ALUout_o [31:0] $end
$var reg 32 %" Memout_o [31:0] $end
$var reg 1 &" MemtoReg_o $end
$var reg 1 [ RegWrite_o $end
$var reg 5 '" rd_addr_o [4:0] $end
$upscope $end
$scope module MUX_ALUSrc $end
$var wire 32 (" data1_i [31:0] $end
$var wire 32 )" data2_i [31:0] $end
$var wire 32 *" data3_i [31:0] $end
$var wire 2 +" select_i [1:0] $end
$var wire 32 ," data_o [31:0] $end
$var wire 32 -" data0_i [31:0] $end
$upscope $end
$scope module MUX_PC $end
$var wire 32 ." data0_i [31:0] $end
$var wire 32 /" data1_i [31:0] $end
$var wire 32 0" data2_i [31:0] $end
$var wire 32 1" data3_i [31:0] $end
$var wire 2 2" select_i [1:0] $end
$var wire 32 3" data_o [31:0] $end
$upscope $end
$scope module MUX_R1 $end
$var wire 32 4" data0_i [31:0] $end
$var wire 32 5" data2_i [31:0] $end
$var wire 32 6" data3_i [31:0] $end
$var wire 2 7" select_i [1:0] $end
$var wire 32 8" data_o [31:0] $end
$var wire 32 9" data1_i [31:0] $end
$upscope $end
$scope module MUX_R2 $end
$var wire 32 :" data0_i [31:0] $end
$var wire 32 ;" data2_i [31:0] $end
$var wire 32 <" data3_i [31:0] $end
$var wire 2 =" select_i [1:0] $end
$var wire 32 >" data_o [31:0] $end
$var wire 32 ?" data1_i [31:0] $end
$upscope $end
$scope module MUX_WB $end
$var wire 32 @" data0_i [31:0] $end
$var wire 32 A" data1_i [31:0] $end
$var wire 32 B" data2_i [31:0] $end
$var wire 32 C" data3_i [31:0] $end
$var wire 2 D" select_i [1:0] $end
$var wire 32 E" data_o [31:0] $end
$upscope $end
$scope module PC $end
$var wire 1 ` PCWrite_i $end
$var wire 1 # clk_i $end
$var wire 32 F" pc_i [31:0] $end
$var wire 1 $ rst_i $end
$var wire 1 % start_i $end
$var reg 32 G" pc_o [31:0] $end
$upscope $end
$scope module Registers $end
$var wire 5 H" RDaddr_i [4:0] $end
$var wire 32 I" RDdata_i [31:0] $end
$var wire 5 J" RS1addr_i [4:0] $end
$var wire 5 K" RS2addr_i [4:0] $end
$var wire 1 [ RegWrite_i $end
$var wire 1 # clk_i $end
$var wire 32 L" RS2data_o [31:0] $end
$var wire 32 M" RS1data_o [31:0] $end
$upscope $end
$scope module Zero $end
$var wire 32 N" data0_i [31:0] $end
$var wire 32 O" data1_i [31:0] $end
$var wire 1 4 zero_o $end
$upscope $end
$upscope $end
$upscope $end
$enddefinitions $end
#0
$dumpvars
b0 O"
b0 N"
b0 M"
b0 L"
b0 K"
b0 J"
b0 I"
b0 H"
b0 G"
b100 F"
b0 E"
b0 D"
b0 C"
b0 B"
b0 A"
b0 @"
b0 ?"
b0 >"
b0 ="
b0 <"
b0 ;"
b0 :"
b0 9"
b0 8"
b0 7"
b0 6"
b0 5"
b0 4"
b100 3"
b0 2"
b0 1"
b0 0"
b0 /"
b100 ."
b0 -"
b0 ,"
b0 +"
b0 *"
b0 )"
b0 ("
b0 '"
0&"
b0 %"
b0 $"
b0 #"
b0 ""
b0 !"
b0 ~
b11000000000010100010011 }
b0 |
b0 {
b0 z
b0 y
b0 x
b11000000000010100010011 w
1v
b0 u
b0 t
b0 s
b0 r
b0 q
b0 p
b0 o
0n
b0 m
b0 l
b0 k
b0 j
b0 i
b0 h
b0 g
b0 f
b0 e
b0 d
0c
b0 b
b0 a
1`
b0 _
b0 ^
b0 ]
b0 \
0[
b0 Z
0Y
0X
0W
0V
b0 U
b0 T
b0 S
0R
0Q
b0 P
0O
0N
0M
0L
b0 K
b0 J
b0 I
0H
0G
b0 F
b0 E
b0 D
b0 C
0B
0A
0@
x?
0>
b0 =
0<
b0 ;
b0 :
b0 9
b0 8
b100 7
b100 6
05
14
03
b11 2
b0 1
b0 0
b0 /
b11 .
b0 -
b0 ,
b0 +
b0 *
b11 )
b100000 (
b0 '
b0 &
0%
1$
1#
bz "
bz !
$end
#12
1%
0$
#25
0#
#50
1B
b11 C
b11 e
0?
1<
b1100 :
b1100 /"
b1100 9
b110 l
b110 |
b100000000010110010011 w
b100000000010110010011 }
b1000 3"
b1000 F"
b10011 =
b110 a
b110 h
b1010 k
b110 K"
b1000 7
b1000 ."
b100 8
b100 x
b100 ~
b100 G"
xM
b11000000000010100010011 z
b11000000000010100010011 {
b1 &
1#
#75
0#
#100
b10 9
b1 l
b1 |
b110 +
b110 I
b110 /
b1 a
b1 h
b1011 k
b1 K"
b110 ,
b110 ,"
b100000000010010010011 w
b100000000010010010011 }
b1100 3"
b1100 F"
b100000000010110010011 z
b100000000010110010011 {
b110 :
b110 /"
b100 ;
b100 y
b110 p
b110 ("
b1010 K
b1010 d
b1010 q
b110 \
b110 t
b1 +"
1n
b11 1
b11 m
0M
1L
xQ
b1100 7
b1100 ."
b1000 8
b1000 x
b1000 ~
b1000 G"
b10 &
1#
#125
0#
#150
b1 +
b1 I
b1 /
b1 ,
b1 ,"
b10101101001000010010110011 w
b10101101001000010010110011 }
b10000 3"
b10000 F"
bx 9"
bx ?"
bx E"
bx I"
b1001 k
b10000 7
b10000 ."
b1100 8
b1100 x
b1100 ~
b1100 G"
b0x D"
x&"
b1010 S
b1010 U
b1010 #"
b110 F
b110 P
b110 !"
b110 5"
b110 ;"
0Q
1R
b1 p
b1 ("
b1011 K
b1011 d
b1011 q
b1 \
b1 t
b100000000010010010011 z
b100000000010010010011 {
b1010 :
b1010 /"
b1000 ;
b1000 y
b11 &
1#
#175
0#
#200
0B
b10 C
b10 e
b1010010 9
b101001 l
b101001 |
b110011 =
b1001 b
b1011 a
b1001 j
b1011 h
b1000 f
b1001 J"
b1011 K"
b110 9"
b110 ?"
b110 E"
b110 I"
b101011000010110010011 w
b101011000010110010011 }
b10100 3"
b10100 F"
b10101101001000010010110011 z
b10101101001000010010110011 {
b1011110 :
b1011110 /"
b1100 ;
b1100 y
b1001 K
b1001 d
b1001 q
b1011 S
b1011 U
b1011 #"
b1 F
b1 P
b1 !"
b1 5"
b1 ;"
b1010 Z
b1010 '"
b1010 H"
b110 $"
b110 @"
b0 D"
0&"
1[
b10100 7
b10100 ."
b10000 8
b10000 x
b10000 ~
b10000 G"
b100 &
1#
#225
0#
#250
b101 .
b101 2
b1 J
b1 -"
b1 >"
1B
04
b1 ^
b1 ="
b1 -
b1 8"
b11 C
b11 e
0?
1<
b1 i
b1 M"
b1 N"
b10 9
b10 _
b10 7"
b1 +
b1 I
b1 /
b1 l
b1 |
b1011000111000010011 w
b1011000111000010011 }
b11000 3"
b11000 F"
1Y
b1 9"
b1 ?"
b1 E"
b1 I"
1V
b1 ,
b1 ,"
b10011 =
b1011 b
b1 a
b1011 j
b1 h
b1011 k
b0 f
b1011 J"
b1 K"
b11000 7
b11000 ."
b10100 8
b10100 x
b10100 ~
b10100 G"
b1011 Z
b1011 '"
b1011 H"
b1 $"
b1 @"
b1001 S
b1001 U
b1001 #"
b101001 p
b101001 ("
b1000 0
b1000 o
b1011 \
b1011 t
b1001 ]
b1001 r
b0 +"
0n
b10 1
b10 m
b101011000010110010011 z
b101011000010110010011 {
b10010 :
b10010 /"
b10000 ;
b10000 y
b101 &
1#
#275
0#
#300
b10 +
b10 I
b10 /
b11 .
b11 2
b0 J
b0 -"
b0 >"
b0 9
b0 ^
b0 ="
b0 l
b0 |
b0 _
b0 7"
b0 a
b0 h
b11100 k
b0 K"
0V
0Y
b11111111111101011000111010010011 w
b11111111111101011000111010010011 }
b11100 3"
b11100 F"
b1011000111000010011 z
b1011000111000010011 {
b10100 :
b10100 /"
b10100 ;
b10100 y
b1 p
b1 ("
b0 0
b0 o
b1011 K
b1011 d
b1011 q
b1 \
b1 t
b1011 ]
b1011 r
b1 s
b1 4"
b1 +"
1n
b11 1
b11 m
b1 E
b1 T
b1001 Z
b1001 '"
b1001 H"
b11100 7
b11100 ."
b11000 8
b11000 x
b11000 ~
b11000 G"
b110 &
1#
#325
0#
#350
b10 -
b10 8"
b10 +
b10 I
b10 /
b11111111111111111111111111111110 9
b10 _
b10 7"
b0 ,
b0 ,"
b11111111111111111111111111111111 l
b11111111111111111111111111111111 |
b11111111111001011000111100010011 w
b11111111111001011000111100010011 }
b100000 3"
b100000 F"
1V
b11111 a
b11111 h
b11101 k
b1111111000 f
b11111 K"
b100000 7
b100000 ."
b11100 8
b11100 x
b11100 ~
b11100 G"
b1011 S
b1011 U
b1011 #"
b0 E
b0 T
b10 F
b10 P
b10 !"
b10 5"
b10 ;"
b0 p
b0 ("
b11100 K
b11100 d
b11100 q
b0 \
b0 t
b11111111111101011000111010010011 z
b11111111111101011000111010010011 {
b10110 :
b10110 /"
b11000 ;
b11000 y
b111 &
1#
#375
0#
#400
b11111111111111111111111111111100 9
b1 +
b1 I
b1 /
b11111111111111111111111111111110 l
b11111111111111111111111111111110 |
b11111111111111111111111111111111 ,
b11111111111111111111111111111111 ,"
b1 _
b1 7"
b10 i
b10 M"
b10 N"
b11110 a
b11110 h
b11110 k
b11110 K"
0V
1X
b10 9"
b10 ?"
b10 E"
b10 I"
b101101010000010001100011 w
b101101010000010001100011 }
b100100 3"
b100100 F"
b11111111111001011000111100010011 z
b11111111111001011000111100010011 {
b11000 :
b11000 /"
b11100 ;
b11100 y
b11111111111111111111111111111111 p
b11111111111111111111111111111111 ("
b1111111000 0
b1111111000 o
b11101 K
b11101 d
b11101 q
b11111 \
b11111 t
b11100 S
b11100 U
b11100 #"
b1011 Z
b1011 '"
b1011 H"
b10 $"
b10 @"
b100100 7
b100100 ."
b100000 8
b100000 x
b100000 ~
b100000 G"
b1000 &
1#
#425
0#
#450
0B
b1 C
b1 e
x?
0<
b0 _
b0 7"
b0 +
b0 I
b0 /
15
b1000 9
b110 i
b110 M"
b110 N"
b11111111111111111111111111111110 ,
b11111111111111111111111111111110 ,"
b10 g
b10 L"
b10 O"
b100 l
b100 |
b11111110000000000000010011100011 w
b11111110000000000000010011100011 }
b101000 3"
b101000 F"
0X
b1100011 =
b1010 b
b1011 a
b1010 j
b1011 h
b1000 k
b0 f
b1010 J"
b1011 K"
b101000 7
b101000 ."
b100100 8
b100100 x
b100100 ~
b100100 G"
b11100 Z
b11100 '"
b11100 H"
b11101 S
b11101 U
b11101 #"
b1 F
b1 P
b1 !"
b1 5"
b1 ;"
b11111111111111111111111111111110 p
b11111111111111111111111111111110 ("
b11110 K
b11110 d
b11110 q
b11110 \
b11110 t
b10 s
b10 4"
b101101010000010001100011 z
b101101010000010001100011 {
b101000 :
b101000 /"
b100000 ;
b100000 y
b1001 &
1#
#475
0#
#500
b1 2"
13
b11111111111111111111111111101000 9
14
b11111111111111111111111111110100 l
b11111111111111111111111111110100 |
b0 i
b0 M"
b0 N"
b0 g
b0 L"
b0 O"
b100 +
b100 I
b100 /
b100 .
b100 2
b0 b
b0 a
b0 j
b0 h
b1001 k
b1111111000 f
b0 J"
b0 K"
b10 J
b10 -"
b10 >"
b110 -
b110 8"
b10 ,
b10 ,"
b1 9"
b1 ?"
b1 E"
b1 I"
b100100000010001000100011 w
b100100000010001000100011 }
b1100 3"
b1100 F"
b11111110000000000000010011100011 z
b11111110000000000000010011100011 {
b1100 :
b1100 /"
b100100 ;
b100100 y
b100 p
b100 ("
b0 0
b0 o
b1000 K
b1000 d
b1000 q
b1011 \
b1011 t
b1010 ]
b1010 r
b10 u
b10 :"
b110 s
b110 4"
b0 +"
0n
b1 1
b1 m
xM
0L
b11110 S
b11110 U
b11110 #"
b0 F
b0 P
b0 !"
b0 5"
b0 ;"
b11101 Z
b11101 '"
b11101 H"
b1 $"
b1 @"
b101100 7
b101100 ."
b101000 8
b101000 x
b101000 ~
b101000 G"
b1010 &
1#
#525
0#
#550
b0 C
b0 e
b0 2"
03
b0 9
05
b0 ,
b0 ,"
b0 +
b0 I
b0 /
b0 l
b0 |
b10000 3"
b10000 F"
b10101101001000010010110011 w
b10101101001000010010110011 }
b0 9"
b0 ?"
b0 E"
b0 I"
b0 J
b0 -"
b0 >"
b0 -
b0 8"
b0 =
b0 k
b0 f
b10000 7
b10000 ."
b1100 8
b1100 x
b1100 ~
b1100 G"
b11110 Z
b11110 '"
b11110 H"
b0 $"
b0 @"
b1000 S
b1000 U
b1000 #"
b10 E
b10 T
b100 F
b100 P
b100 !"
b100 5"
b100 ;"
xQ
0R
b11111111111111111111111111110100 p
b11111111111111111111111111110100 ("
b1111111000 0
b1111111000 o
b1001 K
b1001 d
b1001 q
b0 \
b0 t
b0 ]
b0 r
b0 u
b0 :"
b0 s
b0 4"
b0 z
b0 {
b0 :
b0 /"
b0 ;
b0 y
b1011 &
b1 '
1#
#575
0#
#600
b10 C
b10 e
0?
1<
04
b1010010 9
b1 i
b1 M"
b1 N"
b10 g
b10 L"
b10 O"
b101001 l
b101001 |
b110011 =
b1001 b
b1011 a
b1001 j
b1011 h
b1001 k
b1000 f
b1001 J"
b1011 K"
b11 .
b11 2
bx 9"
bx ?"
bx E"
bx I"
b101011000010110010011 w
b101011000010110010011 }
b10100 3"
b10100 F"
b10101101001000010010110011 z
b10101101001000010010110011 {
b1011110 :
b1011110 /"
b1100 ;
b1100 y
b0 p
b0 ("
b0 0
b0 o
b0 K
b0 d
b0 q
b0 1
b0 m
b1001 S
b1001 U
b1001 #"
b0 E
b0 T
b0 F
b0 P
b0 !"
b0 5"
b0 ;"
b1000 Z
b1000 '"
b1000 H"
b100 $"
b100 @"
b0x D"
x&"
0[
b10100 7
b10100 ."
b10000 8
b10000 x
b10000 ~
b10000 G"
b1100 &
1#
#625
0#
#650
b101 .
b101 2
1B
b11 C
b11 e
0?
1<
b10 9
b10 ,
b10 ,"
b10 +
b10 I
b10 /
b10 i
b10 M"
b10 N"
b0 g
b0 L"
b0 O"
b1 l
b1 |
b1011000111000010011 w
b1011000111000010011 }
b11000 3"
b11000 F"
b10 J
b10 -"
b10 >"
b1 -
b1 8"
b10011 =
b1011 b
b1 a
b1011 j
b1 h
b1011 k
b0 f
b1011 J"
b1 K"
b11000 7
b11000 ."
b10100 8
b10100 x
b10100 ~
b10100 G"
b1001 Z
b1001 '"
b1001 H"
b0 $"
b0 @"
b0 S
b0 U
b0 #"
b101001 p
b101001 ("
b1000 0
b1000 o
b1001 K
b1001 d
b1001 q
b1011 \
b1011 t
b1001 ]
b1001 r
b10 u
b10 :"
b1 s
b1 4"
b10 1
b10 m
0M
1L
b101011000010110010011 z
b101011000010110010011 {
b10010 :
b10010 /"
b10000 ;
b10000 y
b1101 &
1#
#675
0#
#700
b11 +
b11 I
b11 /
b11 .
b11 2
b0 9
b0 l
b0 |
b0 a
b0 h
b11100 k
b0 K"
b0 J
b0 -"
b0 >"
b10 -
b10 8"
b1 ,
b1 ,"
b11111111111101011000111010010011 w
b11111111111101011000111010010011 }
b11100 3"
b11100 F"
b1011000111000010011 z
b1011000111000010011 {
b10100 :
b10100 /"
b10100 ;
b10100 y
b1 p
b1 ("
b0 0
b0 o
b1011 K
b1011 d
b1011 q
b1 \
b1 t
b1011 ]
b1011 r
b0 u
b0 :"
b10 s
b10 4"
b1 +"
1n
b11 1
b11 m
b1001 S
b1001 U
b1001 #"
b10 E
b10 T
b10 F
b10 P
b10 !"
b10 5"
b10 ;"
0Q
1R
b0 Z
b0 '"
b0 H"
b11100 7
b11100 ."
b11000 8
b11000 x
b11000 ~
b11000 G"
b1110 &
1#
#725
0#
#750
b11 -
b11 8"
b11 +
b11 I
b11 /
b11111111111111111111111111111110 9
b10 _
b10 7"
b0 ,
b0 ,"
b11111111111111111111111111111111 l
b11111111111111111111111111111111 |
b11111111111001011000111100010011 w
b11111111111001011000111100010011 }
b100000 3"
b100000 F"
b10 9"
b10 ?"
b10 E"
b10 I"
1V
b11111 a
b11111 h
b11101 k
b1111111000 f
b11111 K"
b100000 7
b100000 ."
b11100 8
b11100 x
b11100 ~
b11100 G"
b1001 Z
b1001 '"
b1001 H"
b10 $"
b10 @"
b0 D"
0&"
1[
b1011 S
b1011 U
b1011 #"
b0 E
b0 T
b11 F
b11 P
b11 !"
b11 5"
b11 ;"
b0 p
b0 ("
b11100 K
b11100 d
b11100 q
b0 \
b0 t
b11111111111101011000111010010011 z
b11111111111101011000111010010011 {
b10110 :
b10110 /"
b11000 ;
b11000 y
b1111 &
1#
#775
0#
#800
b11111111111111111111111111111100 9
b10 +
b10 I
b10 /
b11111111111111111111111111111110 l
b11111111111111111111111111111110 |
b11111111111111111111111111111111 ,
b11111111111111111111111111111111 ,"
b1 _
b1 7"
b11 i
b11 M"
b11 N"
b11110 a
b11110 h
b11110 k
b11110 K"
0V
1X
b11 9"
b11 ?"
b11 E"
b11 I"
b101101010000010001100011 w
b101101010000010001100011 }
b100100 3"
b100100 F"
b11111111111001011000111100010011 z
b11111111111001011000111100010011 {
b11000 :
b11000 /"
b11100 ;
b11100 y
b11111111111111111111111111111111 p
b11111111111111111111111111111111 ("
b1111111000 0
b1111111000 o
b11101 K
b11101 d
b11101 q
b11111 \
b11111 t
b11100 S
b11100 U
b11100 #"
b1011 Z
b1011 '"
b1011 H"
b11 $"
b11 @"
b100100 7
b100100 ."
b100000 8
b100000 x
b100000 ~
b100000 G"
b10000 &
1#
#825
0#
#850
0B
b1 C
b1 e
x?
0<
b0 _
b0 7"
b1 +
b1 I
b1 /
15
b1000 9
b110 i
b110 M"
b110 N"
b11111111111111111111111111111110 ,
b11111111111111111111111111111110 ,"
b11 g
b11 L"
b11 O"
b100 l
b100 |
b11111110000000000000010011100011 w
b11111110000000000000010011100011 }
b101000 3"
b101000 F"
0X
b1100011 =
b1010 b
b1011 a
b1010 j
b1011 h
b1000 k
b0 f
b1010 J"
b1011 K"
b101000 7
b101000 ."
b100100 8
b100100 x
b100100 ~
b100100 G"
b11100 Z
b11100 '"
b11100 H"
b11101 S
b11101 U
b11101 #"
b10 F
b10 P
b10 !"
b10 5"
b10 ;"
b11111111111111111111111111111110 p
b11111111111111111111111111111110 ("
b11110 K
b11110 d
b11110 q
b11110 \
b11110 t
b11 s
b11 4"
b101101010000010001100011 z
b101101010000010001100011 {
b101000 :
b101000 /"
b100000 ;
b100000 y
b10001 &
1#
#875
0#
#900
b1 2"
13
b11111111111111111111111111101000 9
14
b11111111111111111111111111110100 l
b11111111111111111111111111110100 |
b0 i
b0 M"
b0 N"
b0 g
b0 L"
b0 O"
b11 +
b11 I
b11 /
b100 .
b100 2
b0 b
b0 a
b0 j
b0 h
b1001 k
b1111111000 f
b0 J"
b0 K"
b11 J
b11 -"
b11 >"
b110 -
b110 8"
b11 ,
b11 ,"
b10 9"
b10 ?"
b10 E"
b10 I"
b100100000010001000100011 w
b100100000010001000100011 }
b1100 3"
b1100 F"
b11111110000000000000010011100011 z
b11111110000000000000010011100011 {
b1100 :
b1100 /"
b100100 ;
b100100 y
b100 p
b100 ("
b0 0
b0 o
b1000 K
b1000 d
b1000 q
b1011 \
b1011 t
b1010 ]
b1010 r
b11 u
b11 :"
b110 s
b110 4"
b0 +"
0n
b1 1
b1 m
xM
0L
b11110 S
b11110 U
b11110 #"
b1 F
b1 P
b1 !"
b1 5"
b1 ;"
b11101 Z
b11101 '"
b11101 H"
b10 $"
b10 @"
b101100 7
b101100 ."
b101000 8
b101000 x
b101000 ~
b101000 G"
b10010 &
1#
#925
0#
#950
b0 C
b0 e
b0 2"
03
b0 9
05
b0 ,
b0 ,"
b0 +
b0 I
b0 /
b0 l
b0 |
b10000 3"
b10000 F"
b10101101001000010010110011 w
b10101101001000010010110011 }
b1 9"
b1 ?"
b1 E"
b1 I"
b0 J
b0 -"
b0 >"
b0 -
b0 8"
b0 =
b0 k
b0 f
b10000 7
b10000 ."
b1100 8
b1100 x
b1100 ~
b1100 G"
b11110 Z
b11110 '"
b11110 H"
b1 $"
b1 @"
b1000 S
b1000 U
b1000 #"
b11 E
b11 T
b11 F
b11 P
b11 !"
b11 5"
b11 ;"
xQ
0R
b11111111111111111111111111110100 p
b11111111111111111111111111110100 ("
b1111111000 0
b1111111000 o
b1001 K
b1001 d
b1001 q
b0 \
b0 t
b0 ]
b0 r
b0 u
b0 :"
b0 s
b0 4"
b0 z
b0 {
b0 :
b0 /"
b0 ;
b0 y
b10011 &
b10 '
1#
#975
0#
#1000
b10 C
b10 e
0?
1<
04
b1010010 9
b10 i
b10 M"
b10 N"
b11 g
b11 L"
b11 O"
b101001 l
b101001 |
b110011 =
b1001 b
b1011 a
b1001 j
b1011 h
b1001 k
b1000 f
b1001 J"
b1011 K"
b11 .
b11 2
bx 9"
bx ?"
bx E"
bx I"
b101011000010110010011 w
b101011000010110010011 }
b10100 3"
b10100 F"
b10101101001000010010110011 z
b10101101001000010010110011 {
b1011110 :
b1011110 /"
b1100 ;
b1100 y
b0 p
b0 ("
b0 0
b0 o
b0 K
b0 d
b0 q
b0 1
b0 m
b1001 S
b1001 U
b1001 #"
b0 E
b0 T
b0 F
b0 P
b0 !"
b0 5"
b0 ;"
b1000 Z
b1000 '"
b1000 H"
b11 $"
b11 @"
b0x D"
x&"
0[
b10100 7
b10100 ."
b10000 8
b10000 x
b10000 ~
b10000 G"
b10100 &
1#
#1025
0#
#1050
b101 .
b101 2
1B
b11 C
b11 e
0?
1<
b10 9
b11 ,
b11 ,"
b110 +
b110 I
b110 /
b11 i
b11 M"
b11 N"
b0 g
b0 L"
b0 O"
b1 l
b1 |
b1011000111000010011 w
b1011000111000010011 }
b11000 3"
b11000 F"
b11 J
b11 -"
b11 >"
b10 -
b10 8"
b10011 =
b1011 b
b1 a
b1011 j
b1 h
b1011 k
b0 f
b1011 J"
b1 K"
b11000 7
b11000 ."
b10100 8
b10100 x
b10100 ~
b10100 G"
b1001 Z
b1001 '"
b1001 H"
b0 $"
b0 @"
b0 S
b0 U
b0 #"
b101001 p
b101001 ("
b1000 0
b1000 o
b1001 K
b1001 d
b1001 q
b1011 \
b1011 t
b1001 ]
b1001 r
b11 u
b11 :"
b10 s
b10 4"
b10 1
b10 m
0M
1L
b101011000010110010011 z
b101011000010110010011 {
b10010 :
b10010 /"
b10000 ;
b10000 y
b10101 &
1#
#1075
0#
#1100
b11 .
b11 2
b0 9
b0 l
b0 |
b100 +
b100 I
b100 /
b0 a
b0 h
b11100 k
b0 K"
b0 J
b0 -"
b0 >"
b11 -
b11 8"
b1 ,
b1 ,"
b11111111111101011000111010010011 w
b11111111111101011000111010010011 }
b11100 3"
b11100 F"
b1011000111000010011 z
b1011000111000010011 {
b10100 :
b10100 /"
b10100 ;
b10100 y
b1 p
b1 ("
b0 0
b0 o
b1011 K
b1011 d
b1011 q
b1 \
b1 t
b1011 ]
b1011 r
b0 u
b0 :"
b11 s
b11 4"
b1 +"
1n
b11 1
b11 m
b1001 S
b1001 U
b1001 #"
b11 E
b11 T
b110 F
b110 P
b110 !"
b110 5"
b110 ;"
0Q
1R
b0 Z
b0 '"
b0 H"
b11100 7
b11100 ."
b11000 8
b11000 x
b11000 ~
b11000 G"
b10110 &
1#
#1125
0#
#1150
b100 -
b100 8"
b100 +
b100 I
b100 /
b11111111111111111111111111111110 9
b10 _
b10 7"
b0 ,
b0 ,"
b11111111111111111111111111111111 l
b11111111111111111111111111111111 |
b11111111111001011000111100010011 w
b11111111111001011000111100010011 }
b100000 3"
b100000 F"
b110 9"
b110 ?"
b110 E"
b110 I"
1V
b11111 a
b11111 h
b11101 k
b1111111000 f
b11111 K"
b100000 7
b100000 ."
b11100 8
b11100 x
b11100 ~
b11100 G"
b1001 Z
b1001 '"
b1001 H"
b110 $"
b110 @"
b0 D"
0&"
1[
b1011 S
b1011 U
b1011 #"
b0 E
b0 T
b100 F
b100 P
b100 !"
b100 5"
b100 ;"
b0 p
b0 ("
b11100 K
b11100 d
b11100 q
b0 \
b0 t
b11111111111101011000111010010011 z
b11111111111101011000111010010011 {
b10110 :
b10110 /"
b11000 ;
b11000 y
b10111 &
1#
#1175
0#
