CA2020_project2/codes/CPU.vcd
$date
	Sat Jan 02 20:58:11 2021
$end
$version
	Icarus Verilog
$end
$timescale
	1s
$end
$scope module Sign_Extend $end
$var wire 12 ! data_i [11:0] $end
$var wire 32 " data_o [31:0] $end
$upscope $end
$scope module testbench $end
$var wire 256 # mem_cpu_data [255:0] $end
$var wire 1 $ mem_cpu_ack $end
$var wire 1 % cpu_mem_write $end
$var wire 1 & cpu_mem_enable $end
$var wire 256 ' cpu_mem_data [255:0] $end
$var wire 32 ( cpu_mem_addr [31:0] $end
$var reg 1 ) Clk $end
$var reg 1 * Reset $end
$var reg 1 + Start $end
$var reg 27 , address [26:0] $end
$var reg 1 - flag $end
$var reg 4 . index [3:0] $end
$var reg 25 / tag [24:0] $end
$var integer 32 0 counter [31:0] $end
$var integer 32 1 i [31:0] $end
$var integer 32 2 j [31:0] $end
$var integer 32 3 outfile [31:0] $end
$var integer 32 4 outfile2 [31:0] $end
$scope module CPU $end
$var wire 1 ) clk_i $end
$var wire 1 * rst_i $end
$var wire 1 + start_i $end
$var wire 1 % mem_write_o $end
$var wire 1 & mem_enable_o $end
$var wire 256 5 mem_data_o [255:0] $end
$var wire 256 6 mem_data_i [255:0] $end
$var wire 32 7 mem_addr_o [31:0] $end
$var wire 1 $ mem_ack_i $end
$scope module ALU $end
$var wire 32 8 data_o [31:0] $end
$var wire 32 9 data1_i [31:0] $end
$var wire 32 : data0_i [31:0] $end
$var wire 4 ; ALUCtrl_i [3:0] $end
$var reg 32 < data_reg [31:0] $end
$upscope $end
$scope module ALU_Control $end
$var wire 10 = funct [9:0] $end
$var wire 2 > ALUOp_i [1:0] $end
$var wire 4 ? ALUCtrl_o [3:0] $end
$upscope $end
$scope module AND $end
$var wire 1 @ bool_o $end
$var wire 1 A data1_i $end
$var wire 1 B data0_i $end
$upscope $end
$scope module Add_PC1 $end
$var wire 32 C data1_in [31:0] $end
$var wire 32 D data_o [31:0] $end
$var wire 32 E data0_in [31:0] $end
$upscope $end
$scope module Add_PC2 $end
$var wire 32 F data0_in [31:0] $end
$var wire 32 G data_o [31:0] $end
$var wire 32 H data1_in [31:0] $end
$upscope $end
$scope module Control $end
$var wire 1 I RegWrite_o $end
$var wire 7 J Op_i [6:0] $end
$var wire 1 K NoOP $end
$var wire 1 L MemtoReg_o $end
$var wire 1 M MemWrite_o $end
$var wire 1 N MemRead_o $end
$var wire 1 B Branch_o $end
$var wire 1 O ALUSrc_o $end
$var wire 2 P ALUOp_o [1:0] $end
$upscope $end
$scope module EX_MEM $end
$var wire 32 Q ALUout_i [31:0] $end
$var wire 1 ) clk_i $end
$var wire 1 * rst_i $end
$var wire 32 R rs2_data_i [31:0] $end
$var wire 5 S rd_addr_i [4:0] $end
$var wire 1 T mem_stall_i $end
$var wire 1 U RegWrite_i $end
$var wire 1 V MemtoReg_i $end
$var wire 1 W MemWrite_i $end
$var wire 1 X MemRead_i $end
$var reg 32 Y ALUout_o [31:0] $end
$var reg 1 Z MemRead_o $end
$var reg 1 [ MemWrite_o $end
$var reg 1 \ MemtoReg_o $end
$var reg 1 ] RegWrite_o $end
$var reg 5 ^ rd_addr_o [4:0] $end
$var reg 32 _ rs2_data_o [31:0] $end
$upscope $end
$scope module Forward $end
$var wire 1 ] EXMEM_RegWrite_i $end
$var wire 5 ` EXMEM_rd_addr_i [4:0] $end
$var wire 1 a EX_hazardA $end
$var wire 1 b EX_hazardB $end
$var wire 1 c MEM_hazardA $end
$var wire 1 d MEM_hazardB $end
$var wire 5 e MEMWB_rd_addr_i [4:0] $end
$var wire 1 f MEMWB_RegWrite_i $end
$var wire 5 g IDEX_rs2_addr_i [4:0] $end
$var wire 5 h IDEX_rs1_addr_i [4:0] $end
$var wire 2 i ForwardB_o [1:0] $end
$var wire 2 j ForwardA_o [1:0] $end
$upscope $end
$scope module Hazard $end
$var wire 1 K NoOP_o $end
$var wire 1 k PCWrite_o $end
$var wire 1 * rst_i $end
$var wire 5 l rs2_addr_i [4:0] $end
$var wire 5 m rs1_addr_i [4:0] $end
$var wire 1 n Stall_o $end
$var wire 5 o IDEX_rd_addr_i [4:0] $end
$var wire 1 X IDEX_MemRead_i $end
$upscope $end
$scope module ID_EX $end
$var wire 2 p ALUOp_i [1:0] $end
$var wire 1 O ALUSrc_i $end
$var wire 1 N MemRead_i $end
$var wire 1 M MemWrite_i $end
$var wire 1 L MemtoReg_i $end
$var wire 1 I RegWrite_i $end
$var wire 1 ) clk_i $end
$var wire 10 q funct_i [9:0] $end
$var wire 1 * rst_i $end
$var wire 32 r rs2_data_i [31:0] $end
$var wire 5 s rs2_addr_i [4:0] $end
$var wire 32 t rs1_data_i [31:0] $end
$var wire 5 u rs1_addr_i [4:0] $end
$var wire 5 v rd_addr_i [4:0] $end
$var wire 1 T mem_stall_i $end
$var wire 32 w imm_i [31:0] $end
$var reg 2 x ALUOp_o [1:0] $end
$var reg 1 y ALUSrc_o $end
$var reg 1 X MemRead_o $end
$var reg 1 W MemWrite_o $end
$var reg 1 V MemtoReg_o $end
$var reg 1 U RegWrite_o $end
$var reg 10 z funct_o [9:0] $end
$var reg 32 { imm_o [31:0] $end
$var reg 5 | rd_addr_o [4:0] $end
$var reg 5 } rs1_addr_o [4:0] $end
$var reg 32 ~ rs1_data_o [31:0] $end
$var reg 5 !" rs2_addr_o [4:0] $end
$var reg 32 "" rs2_data_o [31:0] $end
$upscope $end
$scope module IF_ID $end
$var wire 1 @ Flush_i $end
$var wire 1 #" IFID_Write_i $end
$var wire 1 ) clk_i $end
$var wire 1 * rst_i $end
$var wire 1 T mem_stall_i $end
$var wire 32 $" instruc_i [31:0] $end
$var wire 32 %" PC_i [31:0] $end
$var reg 32 &" PC_o [31:0] $end
$var reg 32 '" instruc_o [31:0] $end
$upscope $end
$scope module Imm_Gen $end
$var wire 32 (" instruc_i [31:0] $end
$var wire 32 )" imm_o [31:0] $end
$upscope $end
$scope module Instruction_Memory $end
$var wire 32 *" instr_o [31:0] $end
$var wire 32 +" addr_i [31:0] $end
$upscope $end
$scope module MEM_WB $end
$var wire 32 ," ALUout_i [31:0] $end
$var wire 1 \ MemtoReg_i $end
$var wire 1 ] RegWrite_i $end
$var wire 1 ) clk_i $end
$var wire 5 -" rd_addr_i [4:0] $end
$var wire 1 * rst_i $end
$var wire 1 T mem_stall_i $end
$var wire 32 ." Memout_i [31:0] $end
$var reg 32 /" ALUout_o [31:0] $end
$var reg 32 0" Memout_o [31:0] $end
$var reg 1 1" MemtoReg_o $end
$var reg 1 f RegWrite_o $end
$var reg 5 2" rd_addr_o [4:0] $end
$upscope $end
$scope module MUX_ALUSrc $end
$var wire 32 3" data1_i [31:0] $end
$var wire 32 4" data2_i [31:0] $end
$var wire 32 5" data3_i [31:0] $end
$var wire 2 6" select_i [1:0] $end
$var wire 32 7" data_o [31:0] $end
$var wire 32 8" data0_i [31:0] $end
$upscope $end
$scope module MUX_PC $end
$var wire 32 9" data0_i [31:0] $end
$var wire 32 :" data1_i [31:0] $end
$var wire 32 ;" data2_i [31:0] $end
$var wire 32 <" data3_i [31:0] $end
$var wire 2 =" select_i [1:0] $end
$var wire 32 >" data_o [31:0] $end
$upscope $end
$scope module MUX_R1 $end
$var wire 32 ?" data0_i [31:0] $end
$var wire 32 @" data2_i [31:0] $end
$var wire 32 A" data3_i [31:0] $end
$var wire 2 B" select_i [1:0] $end
$var wire 32 C" data_o [31:0] $end
$var wire 32 D" data1_i [31:0] $end
$upscope $end
$scope module MUX_R2 $end
$var wire 32 E" data0_i [31:0] $end
$var wire 32 F" data2_i [31:0] $end
$var wire 32 G" data3_i [31:0] $end
$var wire 2 H" select_i [1:0] $end
$var wire 32 I" data_o [31:0] $end
$var wire 32 J" data1_i [31:0] $end
$upscope $end
$scope module MUX_WB $end
$var wire 32 K" data0_i [31:0] $end
$var wire 32 L" data1_i [31:0] $end
$var wire 32 M" data2_i [31:0] $end
$var wire 32 N" data3_i [31:0] $end
$var wire 2 O" select_i [1:0] $end
$var wire 32 P" data_o [31:0] $end
$upscope $end
$scope module PC $end
$var wire 1 k PCWrite_i $end
$var wire 1 ) clk_i $end
$var wire 32 Q" pc_i [31:0] $end
$var wire 1 * rst_i $end
$var wire 1 + start_i $end
$var wire 1 T stall_i $end
$var reg 32 R" pc_o [31:0] $end
$upscope $end
$scope module Registers $end
$var wire 5 S" RDaddr_i [4:0] $end
$var wire 32 T" RDdata_i [31:0] $end
$var wire 5 U" RS1addr_i [4:0] $end
$var wire 5 V" RS2addr_i [4:0] $end
$var wire 1 f RegWrite_i $end
$var wire 1 ) clk_i $end
$var wire 32 W" RS2data_o [31:0] $end
$var wire 32 X" RS1data_o [31:0] $end
$upscope $end
$scope module Zero $end
$var wire 32 Y" data0_i [31:0] $end
$var wire 32 Z" data1_i [31:0] $end
$var wire 1 A zero_o $end
$upscope $end
$scope module dcache $end
$var wire 1 [" cache_dirty $end
$var wire 1 \" cache_sram_enable $end
$var wire 4 ]" cache_sram_index [3:0] $end
$var wire 1 ^" cache_sram_write $end
$var wire 1 ) clk_i $end
$var wire 1 Z cpu_MemRead_i $end
$var wire 1 [ cpu_MemWrite_i $end
$var wire 32 _" cpu_addr_i [31:0] $end
$var wire 32 `" cpu_data_i [31:0] $end
$var wire 32 a" cpu_data_o [31:0] $end
$var wire 1 b" cpu_req $end
$var wire 1 T cpu_stall_o $end
$var wire 256 c" mem_data_o [255:0] $end
$var wire 1 & mem_enable_o $end
$var wire 1 % mem_write_o $end
$var wire 256 d" r_hit_data [255:0] $end
$var wire 1 * rst_i $end
$var wire 1 e" write_hit $end
$var wire 1 f" sram_valid $end
$var wire 22 g" sram_tag [21:0] $end
$var wire 1 h" sram_dirty $end
$var wire 25 i" sram_cache_tag [24:0] $end
$var wire 256 j" sram_cache_data [255:0] $end
$var wire 256 k" mem_data_i [255:0] $end
$var wire 32 l" mem_addr_o [31:0] $end
$var wire 1 $ mem_ack_i $end
$var wire 1 m" hit $end
$var wire 23 n" cpu_tag [22:0] $end
$var wire 5 o" cpu_offset [4:0] $end
$var wire 4 p" cpu_index [3:0] $end
$var wire 25 q" cache_sram_tag [24:0] $end
$var wire 256 r" cache_sram_data [255:0] $end
$var reg 1 s" cache_write $end
$var reg 32 t" cpu_data [31:0] $end
$var reg 1 u" mem_enable $end
$var reg 1 v" mem_write $end
$var reg 3 w" state [2:0] $end
$var reg 256 x" w_hit_data [255:0] $end
$var reg 1 y" write_back $end
$scope module dcache_sram $end
$var wire 4 z" addr_i [3:0] $end
$var wire 1 ) clk_i $end
$var wire 256 {" data_i [255:0] $end
$var wire 1 \" enable_i $end
$var wire 1 |" hit0 $end
$var wire 1 }" hit1 $end
$var wire 1 m" hit_o $end
$var wire 1 * rst_i $end
$var wire 25 ~" tag_i [24:0] $end
$var wire 1 ^" write_i $end
$var wire 25 !# tag_o [24:0] $end
$var wire 256 "# data_o [255:0] $end
$var integer 32 ## i [31:0] $end
$var integer 32 $# j [31:0] $end
$upscope $end
$upscope $end
$upscope $end
$scope module Data_Memory $end
$var wire 1 $ ack_o $end
$var wire 32 %# addr_i [31:0] $end
$var wire 1 ) clk_i $end
$var wire 256 &# data_i [255:0] $end
$var wire 256 '# data_o [255:0] $end
$var wire 1 & enable_i $end
$var wire 1 * rst_i $end
$var wire 1 % write_i $end
$var wire 27 (# addr [26:0] $end
$var reg 4 )# count [3:0] $end
$var reg 256 *# data [255:0] $end
$var reg 2 +# state [1:0] $end
$upscope $end
$upscope $end
$enddefinitions $end
#0
$dumpvars
b0 +#
bx *#
b0 )#
bx (#
bx '#
bx &#
bx00000 %#
b10 $#
b10000 ##
bx "#
bx !#
b1xxxxxxxxxxxxxxxxxxxxxxxx ~"
x}"
x|"
bx {"
bx z"
0y"
bx x"
b0 w"
0v"
0u"
bx t"
0s"
bx r"
b1xxxxxxxxxxxxxxxxxxxxxxxx q"
bx p"
bx o"
bx n"
xm"
bx00000 l"
bx k"
bx j"
bx i"
xh"
bx g"
xf"
xe"
bx d"
bx c"
xb"
bx a"
bx `"
bx _"
x^"
bx ]"
x\"
x["
bx Z"
bx Y"
bx X"
bx W"
bx V"
bx U"
bx T"
bx S"
b0 R"
bx Q"
bx P"
b0x O"
b0 N"
b0 M"
bx L"
bx K"
bx J"
bx I"
bx H"
b0 G"
bx F"
bx E"
bx D"
bx C"
bx B"
b0 A"
bx @"
bx ?"
bx >"
b0x ="
b0 <"
b0 ;"
bx :"
b100 9"
bx 8"
bx 7"
b0x 6"
b0 5"
b0 4"
bx 3"
bx 2"
x1"
bx 0"
bx /"
bx ."
bx -"
bx ,"
b0 +"
bx *"
bx )"
bx ("
bx '"
bx &"
b0 %"
bx $"
x#"
bx ""
bx !"
bx ~
bx }
bx |
bx {
bx z
xy
bx x
bx w
bx v
bx u
bx t
bx s
bx r
bx q
bx p
bx o
xn
bx m
bx l
xk
bx j
bx i
bx h
bx g
xf
bx e
xd
xc
xb
xa
bx `
bx _
bx ^
x]
x\
x[
xZ
bx Y
xX
xW
xV
xU
xT
bx S
bx R
bx Q
bx P
xO
xN
xM
xL
xK
bx J
xI
bx H
bx G
bx0 F
b0 E
b100 D
b100 C
xB
xA
x@
bx ?
bx >
bx =
bx <
bx ;
bx :
bx 9
bx 8
bx00000 7
bx 6
bx 5
bx 4
bx 3
bx 2
bx 1
b0 0
bx /
bx .
x-
bx ,
0+
1*
0)
bx00000 (
bx '
0&
0%
0$
bx #
bz "
bz !
$end
#12
0O
0M
b0 8
b0 Q
b0 <
b0 9
b0 7"
b100 >"
b100 Q"
b0 (#
0m"
b0 g"
b0 :
b0 C"
b0 R
b0 8"
b0 I"
0N
0I
1k
1#"
b0 P
b0 p
b0 ="
0@
0|"
0}"
b0 ."
b0 a"
b0 t"
0h"
0f"
b0 j
b0 B"
b0 i
b0 H"
0K
0n
0B
1A
b0 G
b0 :"
b0 F
b0 (
b0 7
b0 l"
b0 %#
b0 d"
b0 '
b0 5
b0 c"
b0 &#
b0 j"
b0 "#
b0 i"
b0 !#
0a
0b
0^"
0T
b0 t
b0 X"
b0 Y"
b0 r
b0 W"
b0 Z"
b0 w
b0 )"
0d
0c
b0 D"
b0 J"
b0 P"
b0 T"
b0 x"
b0 n"
b0 ]"
b0 z"
b0 p"
b0 o"
b1000000000000000000000000 q"
b1000000000000000000000000 ~"
0["
0e"
0\"
0b"
b11 ;
b11 ?
b0 J
b0 m
b0 l
b0 u
b0 s
b0 v
b0 q
b0 U"
b0 V"
b101 4
b11 3
b0 /"
b0 K"
b0 0"
b0 L"
b0 e
b0 2"
b0 S"
b0 O"
01"
0f
b0 _
b0 `"
b0 Y
b0 ,"
b0 @"
b0 F"
b0 _"
b0 ^
b0 `
b0 -"
0[
0Z
0\
0]
b0 {
b0 3"
b0 ""
b0 E"
b0 ~
b0 ?"
b0 =
b0 z
b0 S
b0 o
b0 |
b0 g
b0 !"
b0 h
b0 }
b0 >
b0 x
b0 6"
0y
0W
0X
0V
0U
b0 '"
b0 ("
b0 H
b0 &"
b10 2
b10010000000011 $"
b10010000000011 *"
b1000000000 1
1+
0*
#25
1O
1N
1L
1I
b10000000010010010000011 $"
b10000000010010010000011 *"
b1000 >"
b1000 Q"
b11 J
b1000 v
b10 q
b1000 D
b1000 9"
b100 E
b100 %"
b100 +"
b100 R"
xV
b10010000000011 '"
b10010000000011 ("
b1 0
0-
1)
#50
0)
#75
1O
1N
1L
1I
1k
1#"
b1000 F
0K
0n
b100 w
b100 )"
b100 l
b100 s
b1001 v
b100 V"
b100000000010010100000011 $"
b100000000010010100000011 *"
b1100 >"
b1100 Q"
b10000000010010010000011 '"
b10000000010010010000011 ("
b1100 G
b1100 :"
b100 H
b100 &"
b10 =
b10 z
b1000 S
b1000 o
b1000 |
b1 6"
1y
1X
1V
1U
x\
b1100 D
b1100 9"
b1000 E
b1000 %"
b1000 +"
b1000 R"
b10 0
1)
#100
0)
#125
b100 8
b100 Q
b100 <
b10000 F
1T
b100 9
b100 7"
b1000 w
b1000 )"
b110000000010010110000011 $"
b110000000010010110000011 *"
b10000 >"
b10000 Q"
bx D"
bx J"
bx P"
bx T"
1\"
1b"
b1000 l
b1000 s
b1010 v
b1000 V"
b10000 D
b10000 9"
b1100 E
b1100 %"
b1100 +"
b1100 R"
b0x O"
x1"
b1000 ^
b1000 `
b1000 -"
1Z
1\
1]
b100 {
b100 3"
b1001 S
b1001 o
b1001 |
b100 g
b100 !"
b100000000010010100000011 '"
b100000000010010100000011 ("
b11000 G
b11000 :"
b1000 H
b1000 &"
b11 0
1)
#150
0)
#175
b100 w"
b100 0
1-
1)
#200
0)
#225
b1 w"
1&
1u"
b101 0
1)
#250
0)
#275
b1 )#
b1 +#
b110 0
1)
#300
0)
#325
b10 )#
b111 0
1)
#350
0)
#375
b11 )#
b1000 0
1)
#400
0)
#425
b100 )#
b1001 0
1)
#450
0)
#475
b101 )#
b1010 0
1)
#500
0)
#525
b110 )#
b1011 0
1)
#550
0)
#575
b111 )#
b1100 0
1)
#600
0)
#625
b1000 )#
b1101 0
1)
#650
0)
#675
1$
b1001 )#
b1110 0
1)
#700
0)
#725
0$
1^"
b0 )#
b0 +#
b10 w"
1s"
0&
0u"
b100010001000100100010001000100011001100110011010001000100010001010101010101010110011001100110011101110111011110001000100010001001100110011001101010101010101010111011101110111100110011001100110111011101110111101110111011101111111111111111 r"
b100010001000100100010001000100011001100110011010001000100010001010101010101010110011001100110011101110111011110001000100010001001100110011001101010101010101010111011101110111100110011001100110111011101110111101110111011101111111111111111 {"
b100010001000100100010001000100011001100110011010001000100010001010101010101010110011001100110011101110111011110001000100010001001100110011001101010101010101010111011101110111100110011001100110111011101110111101110111011101111111111111111 #
b100010001000100100010001000100011001100110011010001000100010001010101010101010110011001100110011101110111011110001000100010001001100110011001101010101010101010111011101110111100110011001100110111011101110111101110111011101111111111111111 6
b100010001000100100010001000100011001100110011010001000100010001010101010101010110011001100110011101110111011110001000100010001001100110011001101010101010101010111011101110111100110011001100110111011101110111101110111011101111111111111111 k"
b100010001000100100010001000100011001100110011010001000100010001010101010101010110011001100110011101110111011110001000100010001001100110011001101010101010101010111011101110111100110011001100110111011101110111101110111011101111111111111111 '#
b100010001000100100010001000100011001100110011010001000100010001010101010101010110011001100110011101110111011110001000100010001001100110011001101010101010101010111011101110111100110011001100110111011101110111101110111011101111111111111111 *#
b1111 0
1)
#750
0)
#775
0T
b100010001000100100010001000100011001100110011010001000100010001010101010101010110011001100110011101110111011110001000100010001001100110011001101010101010101010111011101110111100110011001100110111011101110100000000000000000000000000000000 r"
b100010001000100100010001000100011001100110011010001000100010001010101010101010110011001100110011101110111011110001000100010001001100110011001101010101010101010111011101110111100110011001100110111011101110100000000000000000000000000000000 {"
b100010001000100100010001000100011001100110011010001000100010001010101010101010110011001100110011101110111011110001000100010001001100110011001101010101010101010111011101110111100110011001100110111011101110100000000000000000000000000000000 x"
b11101110111011101111111111111111 ."
b11101110111011101111111111111111 a"
b11101110111011101111111111111111 t"
1f"
1m"
b100010001000100100010001000100011001100110011010001000100010001010101010101010110011001100110011101110111011110001000100010001001100110011001101010101010101010111011101110111100110011001100110111011101110111101110111011101111111111111111 d"
b100010001000100100010001000100011001100110011010001000100010001010101010101010110011001100110011101110111011110001000100010001001100110011001101010101010101010111011101110111100110011001100110111011101110111101110111011101111111111111111 '
b100010001000100100010001000100011001100110011010001000100010001010101010101010110011001100110011101110111011110001000100010001001100110011001101010101010101010111011101110111100110011001100110111011101110111101110111011101111111111111111 5
b100010001000100100010001000100011001100110011010001000100010001010101010101010110011001100110011101110111011110001000100010001001100110011001101010101010101010111011101110111100110011001100110111011101110111101110111011101111111111111111 c"
b100010001000100100010001000100011001100110011010001000100010001010101010101010110011001100110011101110111011110001000100010001001100110011001101010101010101010111011101110111100110011001100110111011101110111101110111011101111111111111111 &#
b100010001000100100010001000100011001100110011010001000100010001010101010101010110011001100110011101110111011110001000100010001001100110011001101010101010101010111011101110111100110011001100110111011101110111101110111011101111111111111111 j"
b100010001000100100010001000100011001100110011010001000100010001010101010101010110011001100110011101110111011110001000100010001001100110011001101010101010101010111011101110111100110011001100110111011101110111101110111011101111111111111111 "#
b1000000000000000000000000 i"
b1000000000000000000000000 !#
1|"
0^"
b0 w"
0s"
b10000 0
1)
#800
0)
#825
b11101110111011101111111111111111 R
b11101110111011101111111111111111 8"
b11101110111011101111111111111111 I"
b1 i
b1 H"
b100010001000100100010001000100011001100110011010001000100010001010101010101010110011001100110011101110111011110001000100010001001100110011001101010101010101010111011101110110000000000000000000000000000000011101110111011101111111111111111 r"
b100010001000100100010001000100011001100110011010001000100010001010101010101010110011001100110011101110111011110001000100010001001100110011001101010101010101010111011101110110000000000000000000000000000000011101110111011101111111111111111 {"
b1000 8
b1000 Q
b1000 <
b11000 F
b100010001000100100010001000100011001100110011010001000100010001010101010101010110011001100110011101110111011110001000100010001001100110011001101010101010101010111011101110110000000000000000000000000000000011101110111011101111111111111111 x"
b11001100110011001101110111011101 ."
b11001100110011001101110111011101 a"
b11001100110011001101110111011101 t"
b1000 9
b1000 7"
b1100 w
b1100 )"
b1000000000010011000000011 $"
b1000000000010011000000011 *"
b10100 >"
b10100 Q"
1d
b11101110111011101111111111111111 D"
b11101110111011101111111111111111 J"
b11101110111011101111111111111111 P"
b11101110111011101111111111111111 T"
b100 o"
b1100 l
b1100 s
b1011 v
b1100 V"
b10100 D
b10100 9"
b10000 E
b10000 %"
b10000 +"
b10000 R"
b1000 e
b1000 2"
b1000 S"
b11101110111011101111111111111111 0"
b11101110111011101111111111111111 L"
b1 O"
11"
1f
b1001 ^
b1001 `
b1001 -"
b100 Y
b100 ,"
b100 @"
b100 F"
b100 _"
b1000 {
b1000 3"
b1010 S
b1010 o
b1010 |
b1000 g
b1000 !"
b110000000010010110000011 '"
b110000000010010110000011 ("
b100100 G
b100100 :"
b1100 H
b1100 &"
b10001 0
0-
1)
#850
0)
#875
b0 R
b0 8"
b0 I"
b100000 F
b1100 8
b1100 Q
b1100 <
b0 i
b0 H"
b10000 w
b10000 )"
b1100 9
b1100 7"
b100010001000100100010001000100011001100110011010001000100010001010101010101010110011001100110011101110111011110001000100010001001100110011001111011101110111011111111111111111100110011001100110111011101110111101110111011101111111111111111 r"
b100010001000100100010001000100011001100110011010001000100010001010101010101010110011001100110011101110111011110001000100010001001100110011001111011101110111011111111111111111100110011001100110111011101110111101110111011101111111111111111 {"
b10101010101010101011101110111011 ."
b10101010101010101011101110111011 a"
b10101010101010101011101110111011 t"
b11001100110011001101110111011101 D"
b11001100110011001101110111011101 J"
b11001100110011001101110111011101 P"
b11001100110011001101110111011101 T"
b10000 l
b10000 s
b1100 v
b10000 V"
b100010001000100100010001000100011001100110011010001000100010001010101010101010110011001100110011101110111011110001000100010001001100110011001111011101110111011111111111111111100110011001100110111011101110111101110111011101111111111111111 x"
b1000 o"
0d
b1010000000010011010000011 $"
b1010000000010011010000011 *"
b11000 >"
b11000 Q"
b1000000000010011000000011 '"
b1000000000010011000000011 ("
b110000 G
b110000 :"
b10000 H
b10000 &"
b1100 {
b1100 3"
b1011 S
b1011 o
b1011 |
b1100 g
b1100 !"
b1010 ^
b1010 `
b1010 -"
b11101110111011101111111111111111 _
b11101110111011101111111111111111 `"
b1000 Y
b1000 ,"
b1000 @"
b1000 F"
b1000 _"
b1001 e
b1001 2"
b1001 S"
b11001100110011001101110111011101 0"
b11001100110011001101110111011101 L"
b100 /"
b100 K"
b11000 D
b11000 9"
b10100 E
b10100 %"
b10100 +"
b10100 R"
b10010 0
1)
#900
0)
#925
b10000 8
b10000 Q
b10000 <
b101000 F
b10101010101010101011101110111011 D"
b10101010101010101011101110111011 J"
b10101010101010101011101110111011 P"
b10101010101010101011101110111011 T"
b100010001000100100010001000100011001100110011010001000100010001010101010101010110011001100110011101110111011100000000000000000000000000000000101010101010101010111011101110111100110011001100110111011101110111101110111011101111111111111111 r"
b100010001000100100010001000100011001100110011010001000100010001010101010101010110011001100110011101110111011100000000000000000000000000000000101010101010101010111011101110111100110011001100110111011101110111101110111011101111111111111111 {"
b10001000100010001001100110011001 ."
b10001000100010001001100110011001 a"
b10001000100010001001100110011001 t"
b10000 9
b10000 7"
b10100 w
b10100 )"
b1100000000010011100000011 $"
b1100000000010011100000011 *"
b11100 >"
b11100 Q"
b100010001000100100010001000100011001100110011010001000100010001010101010101010110011001100110011101110111011100000000000000000000000000000000101010101010101010111011101110111100110011001100110111011101110111101110111011101111111111111111 x"
b1100 o"
b10100 l
b10100 s
b1101 v
b10100 V"
b11100 D
b11100 9"
b11000 E
b11000 %"
b11000 +"
b11000 R"
b1010 e
b1010 2"
b1010 S"
b10101010101010101011101110111011 0"
b10101010101010101011101110111011 L"
b1000 /"
b1000 K"
b1011 ^
b1011 `
b1011 -"
b0 _
b0 `"
b1100 Y
b1100 ,"
b1100 @"
b1100 F"
b1100 _"
b10000 {
b10000 3"
b1100 S
b1100 o
b1100 |
b10000 g
b10000 !"
b1010000000010011010000011 '"
b1010000000010011010000011 ("
b111100 G
b111100 :"
b10100 H
b10100 &"
b10011 0
1)
#950
0)
#975
b110000 F
b10100 8
b10100 Q
b10100 <
b100010001000100100010001000100011001100110011010001000100010001010101010101010000000000000000000000000000000010001000100010001001100110011001101010101010101010111011101110111100110011001100110111011101110111101110111011101111111111111111 r"
b100010001000100100010001000100011001100110011010001000100010001010101010101010000000000000000000000000000000010001000100010001001100110011001101010101010101010111011101110111100110011001100110111011101110111101110111011101111111111111111 {"
b11000 w
b11000 )"
b10100 9
b10100 7"
b100010001000100100010001000100011001100110011010001000100010001010101010101010000000000000000000000000000000010001000100010001001100110011001101010101010101010111011101110111100110011001100110111011101110111101110111011101111111111111111 x"
b1100110011001100111011101110111 ."
b1100110011001100111011101110111 a"
b1100110011001100111011101110111 t"
b10001000100010001001100110011001 D"
b10001000100010001001100110011001 J"
b10001000100010001001100110011001 P"
b10001000100010001001100110011001 T"
b11000 l
b11000 s
b1110 v
b11000 V"
b10000 o"
b1110000000010011110000011 $"
b1110000000010011110000011 *"
b100000 >"
b100000 Q"
b1100000000010011100000011 '"
b1100000000010011100000011 ("
b1001000 G
b1001000 :"
b11000 H
b11000 &"
b10100 {
b10100 3"
b1101 S
b1101 o
b1101 |
b10100 g
b10100 !"
b1100 ^
b1100 `
b1100 -"
b10000 Y
b10000 ,"
b10000 @"
b10000 F"
b10000 _"
b1011 e
b1011 2"
b1011 S"
b10001000100010001001100110011001 0"
b10001000100010001001100110011001 L"
b1100 /"
b1100 K"
b100000 D
b100000 9"
b11100 E
b11100 %"
b11100 +"
b11100 R"
b10100 0
1)
#1000
0)
#1025
b100010001000100100010001000100011001100110011000000000000000000000000000000000110011001100110011101110111011110001000100010001001100110011001101010101010101010111011101110111100110011001100110111011101110111101110111011101111111111111111 r"
b100010001000100100010001000100011001100110011000000000000000000000000000000000110011001100110011101110111011110001000100010001001100110011001101010101010101010111011101110111100110011001100110111011101110111101110111011101111111111111111 {"
b11000 8
b11000 Q
b11000 <
b111000 F
b1100110011001100111011101110111 D"
b1100110011001100111011101110111 J"
b1100110011001100111011101110111 P"
b1100110011001100111011101110111 T"
b100010001000100100010001000100011001100110011000000000000000000000000000000000110011001100110011101110111011110001000100010001001100110011001101010101010101010111011101110111100110011001100110111011101110111101110111011101111111111111111 x"
b1000100010001000101010101010101 ."
b1000100010001000101010101010101 a"
b1000100010001000101010101010101 t"
b11000 9
b11000 7"
b11100 w
b11100 )"
b10000000000010100000000011 $"
b10000000000010100000000011 *"
b100100 >"
b100100 Q"
b10100 o"
b11100 l
b11100 s
b1111 v
b11100 V"
b100100 D
b100100 9"
b100000 E
b100000 %"
b100000 +"
b100000 R"
b1100 e
b1100 2"
b1100 S"
b1100110011001100111011101110111 0"
b1100110011001100111011101110111 L"
b10000 /"
b10000 K"
b1101 ^
b1101 `
b1101 -"
b10100 Y
b10100 ,"
b10100 @"
b10100 F"
b10100 _"
b11000 {
b11000 3"
b1110 S
b1110 o
b1110 |
b11000 g
b11000 !"
b1110000000010011110000011 '"
b1110000000010011110000011 ("
b1010100 G
b1010100 :"
b11100 H
b11100 &"
b10101 0
1)
#1050
0)
#1075
b1000000 F
b11100 8
b11100 Q
b11100 <
b100010001000100000000000000000000000000000000010001000100010001010101010101010110011001100110011101110111011110001000100010001001100110011001101010101010101010111011101110111100110011001100110111011101110111101110111011101111111111111111 r"
b100010001000100000000000000000000000000000000010001000100010001010101010101010110011001100110011101110111011110001000100010001001100110011001101010101010101010111011101110111100110011001100110111011101110111101110111011101111111111111111 {"
b100000 w
b100000 )"
b11100 9
b11100 7"
b100010001000100000000000000000000000000000000010001000100010001010101010101010110011001100110011101110111011110001000100010001001100110011001101010101010101010111011101110111100110011001100110111011101110111101110111011101111111111111111 x"
b100010001000100011001100110011 ."
b100010001000100011001100110011 a"
b100010001000100011001100110011 t"
b1000100010001000101010101010101 D"
b1000100010001000101010101010101 J"
b1000100010001000101010101010101 P"
b1000100010001000101010101010101 T"
b0 l
b0 s
b10000 v
b1010 q
b0 V"
b11000 o"
b10010000000010100010000011 $"
b10010000000010100010000011 *"
b101000 >"
b101000 Q"
b10000000000010100000000011 '"
b10000000000010100000000011 ("
b1100000 G
b1100000 :"
b100000 H
b100000 &"
b11100 {
b11100 3"
b1111 S
b1111 o
b1111 |
b11100 g
b11100 !"
b1110 ^
b1110 `
b1110 -"
b11000 Y
b11000 ,"
b11000 @"
b11000 F"
b11000 _"
b1101 e
b1101 2"
b1101 S"
b1000100010001000101010101010101 0"
b1000100010001000101010101010101 L"
b10100 /"
b10100 K"
b101000 D
b101000 9"
b100100 E
b100100 %"
b100100 +"
b100100 R"
b10110 0
1)
#1100
0)
