CA2020_project2/codes/CPU.vcd
$date
	Tue Dec 29 22:01:50 2020
$end
$version
	Icarus Verilog
$end
$timescale
	1s
$end
$scope module Sign_Extend $end
$var wire 12 ! data_i [11:0] $end
$var wire 32 " data_o [31:0] $end
$upscope $end
$scope module testbench $end
$var wire 32 # cpu_mem_addr [31:0] $end
$var wire 256 $ cpu_mem_data [255:0] $end
$var wire 1 % cpu_mem_enable $end
$var wire 1 & cpu_mem_write $end
$var wire 256 ' mem_cpu_data [255:0] $end
$var wire 1 ( mem_cpu_ack $end
$var reg 1 ) Clk $end
$var reg 1 * Reset $end
$var reg 1 + Start $end
$var reg 27 , address [26:0] $end
$var reg 1 - flag $end
$var reg 4 . index [3:0] $end
$var reg 25 / tag [24:0] $end
$var integer 32 0 counter [31:0] $end
$var integer 32 1 i [31:0] $end
$var integer 32 2 j [31:0] $end
$var integer 32 3 outfile [31:0] $end
$var integer 32 4 outfile2 [31:0] $end
$scope module CPU $end
$var wire 1 ) clk_i $end
$var wire 32 5 mem_addr_o [31:0] $end
$var wire 256 6 mem_data_o [255:0] $end
$var wire 1 % mem_enable_o $end
$var wire 1 & mem_write_o $end
$var wire 1 * rst_i $end
$var wire 1 + start_i $end
$var wire 256 7 mem_data_i [255:0] $end
$var wire 1 ( mem_ack_i $end
$scope module ALU $end
$var wire 32 8 data_o [31:0] $end
$var wire 32 9 data1_i [31:0] $end
$var wire 32 : data0_i [31:0] $end
$var wire 4 ; ALUCtrl_i [3:0] $end
$var reg 32 < data_reg [31:0] $end
$upscope $end
$scope module ALU_Control $end
$var wire 10 = funct [9:0] $end
$var wire 2 > ALUOp_i [1:0] $end
$var wire 4 ? ALUCtrl_o [3:0] $end
$upscope $end
$scope module AND $end
$var wire 1 @ bool_o $end
$var wire 1 A data1_i $end
$var wire 1 B data0_i $end
$upscope $end
$scope module Add_PC1 $end
$var wire 32 C data1_in [31:0] $end
$var wire 32 D data_o [31:0] $end
$var wire 32 E data0_in [31:0] $end
$upscope $end
$scope module Add_PC2 $end
$var wire 32 F data0_in [31:0] $end
$var wire 32 G data_o [31:0] $end
$var wire 32 H data1_in [31:0] $end
$upscope $end
$scope module Control $end
$var wire 1 I RegWrite_o $end
$var wire 7 J Op_i [6:0] $end
$var wire 1 K NoOP $end
$var wire 1 L MemtoReg_o $end
$var wire 1 M MemWrite_o $end
$var wire 1 N MemRead_o $end
$var wire 1 B Branch_o $end
$var wire 1 O ALUSrc_o $end
$var wire 2 P ALUOp_o [1:0] $end
$upscope $end
$scope module EX_MEM $end
$var wire 32 Q ALUout_i [31:0] $end
$var wire 1 ) clk_i $end
$var wire 1 * rst_i $end
$var wire 32 R rs2_data_i [31:0] $end
$var wire 5 S rd_addr_i [4:0] $end
$var wire 1 T mem_stall_i $end
$var wire 1 U RegWrite_i $end
$var wire 1 V MemtoReg_i $end
$var wire 1 W MemWrite_i $end
$var wire 1 X MemRead_i $end
$var reg 32 Y ALUout_o [31:0] $end
$var reg 1 Z MemRead_o $end
$var reg 1 [ MemWrite_o $end
$var reg 1 \ MemtoReg_o $end
$var reg 1 ] RegWrite_o $end
$var reg 5 ^ rd_addr_o [4:0] $end
$var reg 32 _ rs2_data_o [31:0] $end
$upscope $end
$scope module Forward $end
$var wire 1 ] EXMEM_RegWrite_i $end
$var wire 5 ` EXMEM_rd_addr_i [4:0] $end
$var wire 1 a EX_hazardA $end
$var wire 1 b EX_hazardB $end
$var wire 1 c MEM_hazardA $end
$var wire 1 d MEM_hazardB $end
$var wire 5 e MEMWB_rd_addr_i [4:0] $end
$var wire 1 f MEMWB_RegWrite_i $end
$var wire 5 g IDEX_rs2_addr_i [4:0] $end
$var wire 5 h IDEX_rs1_addr_i [4:0] $end
$var wire 2 i ForwardB_o [1:0] $end
$var wire 2 j ForwardA_o [1:0] $end
$upscope $end
$scope module Hazard $end
$var wire 1 K NoOP_o $end
$var wire 1 k PCWrite_o $end
$var wire 1 * rst_i $end
$var wire 5 l rs2_addr_i [4:0] $end
$var wire 5 m rs1_addr_i [4:0] $end
$var wire 1 n Stall_o $end
$var wire 5 o IDEX_rd_addr_i [4:0] $end
$var wire 1 X IDEX_MemRead_i $end
$upscope $end
$scope module ID_EX $end
$var wire 2 p ALUOp_i [1:0] $end
$var wire 1 O ALUSrc_i $end
$var wire 1 N MemRead_i $end
$var wire 1 M MemWrite_i $end
$var wire 1 L MemtoReg_i $end
$var wire 1 I RegWrite_i $end
$var wire 1 ) clk_i $end
$var wire 10 q funct_i [9:0] $end
$var wire 1 * rst_i $end
$var wire 32 r rs2_data_i [31:0] $end
$var wire 5 s rs2_addr_i [4:0] $end
$var wire 32 t rs1_data_i [31:0] $end
$var wire 5 u rs1_addr_i [4:0] $end
$var wire 5 v rd_addr_i [4:0] $end
$var wire 1 T mem_stall_i $end
$var wire 32 w imm_i [31:0] $end
$var reg 2 x ALUOp_o [1:0] $end
$var reg 1 y ALUSrc_o $end
$var reg 1 X MemRead_o $end
$var reg 1 W MemWrite_o $end
$var reg 1 V MemtoReg_o $end
$var reg 1 U RegWrite_o $end
$var reg 10 z funct_o [9:0] $end
$var reg 32 { imm_o [31:0] $end
$var reg 5 | rd_addr_o [4:0] $end
$var reg 5 } rs1_addr_o [4:0] $end
$var reg 32 ~ rs1_data_o [31:0] $end
$var reg 5 !" rs2_addr_o [4:0] $end
$var reg 32 "" rs2_data_o [31:0] $end
$upscope $end
$scope module IF_ID $end
$var wire 1 @ Flush_i $end
$var wire 1 #" IFID_Write_i $end
$var wire 1 ) clk_i $end
$var wire 1 * rst_i $end
$var wire 1 T mem_stall_i $end
$var wire 32 $" instruc_i [31:0] $end
$var wire 32 %" PC_i [31:0] $end
$var reg 32 &" PC_o [31:0] $end
$var reg 32 '" instruc_o [31:0] $end
$upscope $end
$scope module Imm_Gen $end
$var wire 32 (" instruc_i [31:0] $end
$var wire 32 )" imm_o [31:0] $end
$upscope $end
$scope module Instruction_Memory $end
$var wire 32 *" instr_o [31:0] $end
$var wire 32 +" addr_i [31:0] $end
$upscope $end
$scope module MEM_WB $end
$var wire 32 ," ALUout_i [31:0] $end
$var wire 1 \ MemtoReg_i $end
$var wire 1 ] RegWrite_i $end
$var wire 1 ) clk_i $end
$var wire 5 -" rd_addr_i [4:0] $end
$var wire 1 * rst_i $end
$var wire 1 T mem_stall_i $end
$var wire 32 ." Memout_i [31:0] $end
$var reg 32 /" ALUout_o [31:0] $end
$var reg 32 0" Memout_o [31:0] $end
$var reg 1 1" MemtoReg_o $end
$var reg 1 f RegWrite_o $end
$var reg 5 2" rd_addr_o [4:0] $end
$upscope $end
$scope module MUX_ALUSrc $end
$var wire 32 3" data1_i [31:0] $end
$var wire 32 4" data2_i [31:0] $end
$var wire 32 5" data3_i [31:0] $end
$var wire 2 6" select_i [1:0] $end
$var wire 32 7" data_o [31:0] $end
$var wire 32 8" data0_i [31:0] $end
$upscope $end
$scope module MUX_PC $end
$var wire 32 9" data0_i [31:0] $end
$var wire 32 :" data1_i [31:0] $end
$var wire 32 ;" data2_i [31:0] $end
$var wire 32 <" data3_i [31:0] $end
$var wire 2 =" select_i [1:0] $end
$var wire 32 >" data_o [31:0] $end
$upscope $end
$scope module MUX_R1 $end
$var wire 32 ?" data0_i [31:0] $end
$var wire 32 @" data2_i [31:0] $end
$var wire 32 A" data3_i [31:0] $end
$var wire 2 B" select_i [1:0] $end
$var wire 32 C" data_o [31:0] $end
$var wire 32 D" data1_i [31:0] $end
$upscope $end
$scope module MUX_R2 $end
$var wire 32 E" data0_i [31:0] $end
$var wire 32 F" data2_i [31:0] $end
$var wire 32 G" data3_i [31:0] $end
$var wire 2 H" select_i [1:0] $end
$var wire 32 I" data_o [31:0] $end
$var wire 32 J" data1_i [31:0] $end
$upscope $end
$scope module MUX_WB $end
$var wire 32 K" data0_i [31:0] $end
$var wire 32 L" data1_i [31:0] $end
$var wire 32 M" data2_i [31:0] $end
$var wire 32 N" data3_i [31:0] $end
$var wire 2 O" select_i [1:0] $end
$var wire 32 P" data_o [31:0] $end
$upscope $end
$scope module PC $end
$var wire 1 k PCWrite_i $end
$var wire 1 ) clk_i $end
$var wire 32 Q" pc_i [31:0] $end
$var wire 1 * rst_i $end
$var wire 1 + start_i $end
$var wire 1 T stall_i $end
$var reg 32 R" pc_o [31:0] $end
$upscope $end
$scope module Registers $end
$var wire 5 S" RDaddr_i [4:0] $end
$var wire 32 T" RDdata_i [31:0] $end
$var wire 5 U" RS1addr_i [4:0] $end
$var wire 5 V" RS2addr_i [4:0] $end
$var wire 1 f RegWrite_i $end
$var wire 1 ) clk_i $end
$var wire 32 W" RS2data_o [31:0] $end
$var wire 32 X" RS1data_o [31:0] $end
$upscope $end
$scope module Zero $end
$var wire 32 Y" data0_i [31:0] $end
$var wire 32 Z" data1_i [31:0] $end
$var wire 1 A zero_o $end
$upscope $end
$scope module dcache $end
$var wire 1 [" cache_dirty $end
$var wire 1 \" cache_sram_enable $end
$var wire 4 ]" cache_sram_index [3:0] $end
$var wire 1 ^" cache_sram_write $end
$var wire 1 ) clk_i $end
$var wire 1 Z cpu_MemRead_i $end
$var wire 1 [ cpu_MemWrite_i $end
$var wire 32 _" cpu_addr_i [31:0] $end
$var wire 32 `" cpu_data_i [31:0] $end
$var wire 32 a" cpu_data_o [31:0] $end
$var wire 1 b" cpu_req $end
$var wire 1 T cpu_stall_o $end
$var wire 256 c" mem_data_o [255:0] $end
$var wire 1 d" mem_enable_o $end
$var wire 1 e" mem_write_o $end
$var wire 256 f" r_hit_data [255:0] $end
$var wire 1 * rst_i $end
$var wire 1 g" write_hit $end
$var wire 1 h" sram_valid $end
$var wire 22 i" sram_tag [21:0] $end
$var wire 1 j" sram_dirty $end
$var wire 25 k" sram_cache_tag [24:0] $end
$var wire 256 l" sram_cache_data [255:0] $end
$var wire 256 m" mem_data_i [255:0] $end
$var wire 32 n" mem_addr_o [31:0] $end
$var wire 1 ( mem_ack_i $end
$var wire 1 o" hit $end
$var wire 23 p" cpu_tag [22:0] $end
$var wire 5 q" cpu_offset [4:0] $end
$var wire 4 r" cpu_index [3:0] $end
$var wire 25 s" cache_sram_tag [24:0] $end
$var wire 256 t" cache_sram_data [255:0] $end
$var reg 1 u" cache_write $end
$var reg 32 v" cpu_data [31:0] $end
$var reg 1 w" mem_enable $end
$var reg 1 x" mem_write $end
$var reg 3 y" state [2:0] $end
$var reg 256 z" w_hit_data [255:0] $end
$var reg 1 {" write_back $end
$scope module dcache_sram $end
$var wire 4 |" addr_i [3:0] $end
$var wire 1 ) clk_i $end
$var wire 256 }" data_i [255:0] $end
$var wire 1 \" enable_i $end
$var wire 1 ~" hit0 $end
$var wire 1 !# hit1 $end
$var wire 1 o" hit_o $end
$var wire 1 * rst_i $end
$var wire 25 "# tag_i [24:0] $end
$var wire 1 ^" write_i $end
$var wire 25 ## tag_o [24:0] $end
$var wire 256 $# data_o [255:0] $end
$var integer 32 %# i [31:0] $end
$var integer 32 &# j [31:0] $end
$upscope $end
$upscope $end
$upscope $end
$scope module Data_Memory $end
$var wire 1 ( ack_o $end
$var wire 32 '# addr_i [31:0] $end
$var wire 1 ) clk_i $end
$var wire 256 (# data_i [255:0] $end
$var wire 256 )# data_o [255:0] $end
$var wire 1 % enable_i $end
$var wire 1 * rst_i $end
$var wire 1 & write_i $end
$var wire 27 *# addr [26:0] $end
$var reg 4 +# count [3:0] $end
$var reg 256 ,# data [255:0] $end
$var reg 2 -# state [1:0] $end
$upscope $end
$upscope $end
$enddefinitions $end
#0
$dumpvars
b0 -#
bx ,#
b0 +#
bz *#
bx )#
bz (#
bz '#
b10 &#
b10000 %#
bx $#
bx ##
b1xxxxxxxxxxxxxxxxxxxxxxxx "#
x!#
x~"
bx }"
bx |"
0{"
bx z"
b0 y"
0x"
0w"
bx v"
0u"
bx t"
b1xxxxxxxxxxxxxxxxxxxxxxxx s"
bx r"
bx q"
bx p"
xo"
bx00000 n"
bx m"
bx l"
bx k"
xj"
bx i"
xh"
xg"
bx f"
0e"
0d"
bx c"
xb"
bx a"
bx `"
bx _"
x^"
bx ]"
x\"
x["
bx Z"
bx Y"
bx X"
bx W"
bx V"
bx U"
bx T"
bx S"
b0 R"
bx Q"
bx P"
b0x O"
b0 N"
b0 M"
bx L"
bx K"
bx J"
bx I"
bx H"
b0 G"
bx F"
bx E"
bx D"
bx C"
bx B"
b0 A"
bx @"
bx ?"
bx >"
b0x ="
b0 <"
b0 ;"
bx :"
b100 9"
bx 8"
bx 7"
b0x 6"
b0 5"
b0 4"
bx 3"
bx 2"
x1"
bx 0"
bx /"
bx ."
bx -"
bx ,"
b0 +"
bx *"
bx )"
bx ("
bx '"
bx &"
b0 %"
bx $"
x#"
bx ""
bx !"
bx ~
bx }
bx |
bx {
bx z
xy
bx x
bx w
bx v
bx u
bx t
bx s
bx r
bx q
bx p
bx o
xn
bx m
bx l
xk
bx j
bx i
bx h
bx g
xf
bx e
xd
xc
xb
xa
bx `
bx _
bx ^
x]
x\
x[
xZ
bx Y
xX
xW
xV
xU
xT
bx S
bx R
bx Q
bx P
xO
xN
xM
xL
xK
bx J
xI
bx H
bx G
bx0 F
b0 E
b100 D
b100 C
xB
xA
x@
bx ?
bx >
bx =
bx <
bx ;
bx :
bx 9
bx 8
bx 7
bz 6
bz 5
bx 4
bx 3
bx 2
bx 1
b0 0
bx /
bx .
x-
bx ,
0+
1*
0)
0(
bx '
z&
z%
bz $
bz #
bz "
bz !
$end
#12
0O
0M
b0 8
b0 Q
b0 <
b0 9
b0 7"
b100 >"
b100 Q"
0o"
b0 i"
b0 :
b0 C"
b0 R
b0 8"
b0 I"
0N
0I
1k
1#"
b0 P
b0 p
b0 ="
0@
0~"
0!#
b0 ."
b0 a"
b0 v"
0j"
0h"
b0 j
b0 B"
b0 i
b0 H"
0K
0n
0B
1A
b0 G
b0 :"
b0 F
b0 n"
b0 f"
b0 c"
b0 l"
b0 $#
b0 k"
b0 ##
0a
0b
0^"
0T
b0 t
b0 X"
b0 Y"
b0 r
b0 W"
b0 Z"
b0 w
b0 )"
0d
0c
b0 D"
b0 J"
b0 P"
b0 T"
b0 z"
b0 p"
b0 ]"
b0 |"
b0 r"
b0 q"
b1000000000000000000000000 s"
b1000000000000000000000000 "#
0["
0g"
0\"
0b"
b11 ;
b11 ?
b0 J
b0 m
b0 l
b0 u
b0 s
b0 v
b0 q
b0 U"
b0 V"
b101 4
b11 3
b0 /"
b0 K"
b0 0"
b0 L"
b0 e
b0 2"
b0 S"
b0 O"
01"
0f
b0 _
b0 `"
b0 Y
b0 ,"
b0 @"
b0 F"
b0 _"
b0 ^
b0 `
b0 -"
0[
0Z
0\
0]
b0 {
b0 3"
b0 ""
b0 E"
b0 ~
b0 ?"
b0 =
b0 z
b0 S
b0 o
b0 |
b0 g
b0 !"
b0 h
b0 }
b0 >
b0 x
b0 6"
0y
0W
0X
0V
0U
b0 '"
b0 ("
b0 H
b0 &"
b10 2
b1000000000000111010010011 $"
b1000000000000111010010011 *"
b1000000000 1
1+
0*
#25
1O
b11 P
b11 p
0L
1I
b100000 G
b100000 :"
b100000 F
b10000 w
b10000 )"
b11110111101000111100110011 $"
b11110111101000111100110011 *"
b1000 >"
b1000 Q"
b10011 J
b10000 l
b10000 s
b11101 v
b10000 V"
b1000 D
b1000 9"
b100 E
b100 %"
b100 +"
b100 R"
xV
b1000000000000111010010011 '"
b1000000000000111010010011 ("
b1 0
0-
1)
#50
0)
#75
0O
b10 P
b10 p
b1111100 F
b111110 w
b111110 )"
b10000 8
b10000 Q
b10000 <
b110011 J
b11101 m
b11101 l
b11101 u
b11101 s
b11110 v
b1000 q
b11101 U"
b11101 V"
b10000 9
b10000 7"
b11110111110000111010110011 $"
b11110111110000111010110011 *"
b1100 >"
b1100 Q"
b11110111101000111100110011 '"
b11110111101000111100110011 ("
b10000000 G
b10000000 :"
b100 H
b100 &"
b10000 {
b10000 3"
b11101 S
b11101 o
b11101 |
b10000 g
b10000 !"
b1 6"
1y
b11 >
b11 x
0V
1U
x\
b1100 D
b1100 9"
b1000 E
b1000 %"
b1000 +"
b1000 R"
b10 0
1)
#100
0)
#125
b101 ;
b101 ?
b10000 :
b10000 C"
b10000 R
b10000 8"
b10000 I"
b1111010 F
b10 j
b10 B"
b10 i
b10 H"
b111101 w
b111101 )"
1a
1b
b100000000 8
b100000000 Q
b100000000 <
b1110111011000000000010000010011 $"
b1110111011000000000010000010011 *"
b10000 >"
b10000 Q"
bx D"
bx J"
bx P"
bx T"
b10000 q"
b10000 9
b10000 7"
b11110 m
b11110 u
b11101 v
b11110 U"
b10000 D
b10000 9"
b1100 E
b1100 %"
b1100 +"
b1100 R"
b0x O"
x1"
b11101 ^
b11101 `
b11101 -"
b10000 Y
b10000 ,"
b10000 @"
b10000 F"
b10000 _"
0\
1]
b111110 {
b111110 3"
b1000 =
b1000 z
b11110 S
b11110 o
b11110 |
b11101 g
b11101 !"
b11101 h
b11101 }
b0 6"
0y
b10 >
b10 x
b11110111110000111010110011 '"
b11110111110000111010110011 ("
b10000010 G
b10000010 :"
b1000 H
b1000 &"
b11 0
1)
#150
0)
#175
1O
b1000000000000 8
b1000000000000 Q
b1000000000000 <
b10000 9
b10000 7"
1A
b11 P
b11 p
0L
1I
b111011101100 F
b100000000 :
b100000000 C"
b10000 R
b10000 8"
b10000 I"
b0 r
b0 W"
b0 Z"
b11101110110 w
b11101110110 )"
b1 i
b1 H"
b100000000 n"
b10011 J
b0 m
b10110 l
b0 u
b10110 s
b1000 v
b111011000 q
b0 U"
b10110 V"
0b
b10000 z"
b1000 ]"
b1000 |"
b1000 r"
b0 q"
1d
b10000 D"
b10000 J"
b10000 P"
b10000 T"
b11110101000000010000110011 $"
b11110101000000010000110011 *"
b10100 >"
b10100 Q"
b1110111011000000000010000010011 '"
b1110111011000000000010000010011 ("
b111011111000 G
b111011111000 :"
b1100 H
b1100 &"
b111101 {
b111101 3"
b11101 S
b11101 o
b11101 |
b11110 h
b11110 }
b11110 ^
b11110 `
b11110 -"
b10000 _
b10000 `"
b100000000 Y
b100000000 ,"
b100000000 @"
b100000000 F"
b100000000 _"
b11101 e
b11101 2"
b11101 S"
b10000 /"
b10000 K"
b0 O"
01"
1f
b10100 D
b10100 9"
b10000 E
b10000 %"
b10000 +"
b10000 R"
b100 0
1)
#200
0)
#225
b11 ;
b11 ?
b0 R
b0 8"
b0 I"
b0 i
b0 H"
b0 :
b0 C"
0O
b10 P
b10 p
0A
b1010000 F
b1000000000000 n"
b0 j
b0 B"
b11101110110 8
b11101110110 Q
b11101110110 <
b10000 r
b10000 W"
b10000 Z"
b101000 w
b101000 )"
b1100101010101000000010000010011 $"
b1100101010101000000010000010011 *"
b11000 >"
b11000 Q"
b100000000 D"
b100000000 J"
b100000000 P"
b100000000 T"
b1000000000000000000001000 s"
b1000000000000000000001000 "#
b1000 p"
b0 ]"
b0 |"
b0 r"
0d
0a
b11101110110 9
b11101110110 7"
b110011 J
b1000 m
b11101 l
b1000 u
b11101 s
b1000 q
b1000 U"
b11101 V"
b11000 D
b11000 9"
b10100 E
b10100 %"
b10100 +"
b10100 R"
b11110 e
b11110 2"
b11110 S"
b100000000 /"
b100000000 K"
b11101 ^
b11101 `
b11101 -"
b1000000000000 Y
b1000000000000 ,"
b1000000000000 @"
b1000000000000 F"
b1000000000000 _"
b11101110110 {
b11101110110 3"
b111011000 =
b111011000 z
b1000 S
b1000 o
b1000 |
b10110 g
b10110 !"
b0 h
b0 }
b1 6"
1y
b11 >
b11 x
b11110101000000010000110011 '"
b11110101000000010000110011 ("
b1100000 G
b1100000 :"
b10000 H
b10000 &"
b101 0
1)
#250
0)
#275
1A
1O
b101 ;
b101 ?
b11 P
b11 p
0L
1I
b110010101010 F
b1 i
b1 H"
b11101110110 :
b11101110110 C"
b0 r
b0 W"
b0 Z"
b11001010101 w
b11001010101 )"
b10 j
b10 B"
b11101110110000000000000 8
b11101110110000000000000 Q
b11101110110000000000000 <
b11101100000 n"
b10011 J
b10101 l
b10101 s
b110010000 q
b10101 V"
1d
1a
b1000000000000 R
b1000000000000 8"
b1000000000000 I"
b1000000000000 9
b1000000000000 7"
b0 z"
b1000000000000000000000011 s"
b1000000000000000000000011 "#
b11 p"
b1011 ]"
b1011 |"
b1011 r"
b10110 q"
b1000000000000 D"
b1000000000000 J"
b1000000000000 P"
b1000000000000 T"
b11111001000000010000110011 $"
b11111001000000010000110011 *"
b11100 >"
b11100 Q"
b1100101010101000000010000010011 '"
b1100101010101000000010000010011 ("
b110010111110 G
b110010111110 :"
b10100 H
b10100 &"
b101000 {
b101000 3"
b1000 =
b1000 z
b11101 g
b11101 !"
b1000 h
b1000 }
b10000 ""
b10000 E"
b0 6"
0y
b10 >
b10 x
b1000 ^
b1000 `
b1000 -"
b0 _
b0 `"
b11101110110 Y
b11101110110 ,"
b11101110110 @"
b11101110110 F"
b11101110110 _"
b11101 e
b11101 2"
b11101 S"
b1000000000000 /"
b1000000000000 K"
b11100 D
b11100 9"
b11000 E
b11000 %"
b11000 +"
b11000 R"
b110 0
1)
#300
0)
#325
b11 ;
b11 ?
b11101110110 t
b11101110110 X"
b11101110110 Y"
b0 R
b0 8"
b0 I"
b11101110110000000000000 :
b11101110110000000000000 C"
b0 i
b0 H"
0O
b10 P
b10 p
0A
b1010000 F
b11101110110000000000000 n"
b11101110110011001010101 8
b11101110110011001010101 Q
b11101110110011001010101 <
b100000000 r
b100000000 W"
b100000000 Z"
b101000 w
b101000 )"
b100010001000000010000010011 $"
b100010001000000010000010011 *"
b100000 >"
b100000 Q"
1c
b11101110110 D"
b11101110110 J"
b11101110110 P"
b11101110110 T"
b1000000000000 z"
b1000000000011101110110000 s"
b1000000000011101110110000 "#
b11101110110000 p"
b0 ]"
b0 |"
b0 r"
b0 q"
0d
b11001010101 9
b11001010101 7"
b110011 J
b11110 l
b11110 s
b1000 q
b11110 V"
b100000 D
b100000 9"
b11100 E
b11100 %"
b11100 +"
b11100 R"
b1000 e
b1000 2"
b1000 S"
b11101110110 /"
b11101110110 K"
b1000000000000 _
b1000000000000 `"
b11101110110000000000000 Y
b11101110110000000000000 ,"
b11101110110000000000000 @"
b11101110110000000000000 F"
b11101110110000000000000 _"
b11001010101 {
b11001010101 3"
b110010000 =
b110010000 z
b10101 g
b10101 !"
b0 ""
b0 E"
b1 6"
1y
b11 >
b11 x
b11111001000000010000110011 '"
b11111001000000010000110011 ("
b1101000 G
b1101000 :"
b11000 H
b11000 &"
b111 0
1)
#350
0)
#375
1O
b101 ;
b101 ?
b11 P
b11 p
0L
1I
b10001000 F
b11101110110011001010101 :
b11101110110011001010101 C"
b0 r
b0 W"
b0 Z"
b1000100 w
b1000100 )"
b1110111011001100101010100000000 8
b1110111011001100101010100000000 Q
b1110111011001100101010100000000 <
b11101110110011001000000 n"
b11101110110000000000000 t
b11101110110000000000000 X"
b11101110110000000000000 Y"
b10011 J
b100 l
b100 s
b10000 q
b100 V"
b100000000 R
b100000000 8"
b100000000 I"
b100000000 9
b100000000 7"
b0 z"
b1000000000011101110110011 s"
b1000000000011101110110011 "#
b11101110110011 p"
b10 ]"
b10 |"
b10 r"
b10101 q"
b11101110110000000000000 D"
b11101110110000000000000 J"
b11101110110000000000000 P"
b11101110110000000000000 T"
b1000100000000000010010010011 $"
b1000100000000000010010010011 *"
b100100 >"
b100100 Q"
b100010001000000010000010011 '"
b100010001000000010000010011 ("
b10100100 G
b10100100 :"
b11100 H
b11100 &"
b101000 {
b101000 3"
b1000 =
b1000 z
b11110 g
b11110 !"
b100000000 ""
b100000000 E"
b11101110110 ~
b11101110110 ?"
b0 6"
0y
b10 >
b10 x
b0 _
b0 `"
b11101110110011001010101 Y
b11101110110011001010101 ,"
b11101110110011001010101 @"
b11101110110011001010101 F"
b11101110110011001010101 _"
b11101110110000000000000 /"
b11101110110000000000000 K"
b100100 D
b100100 9"
b100000 E
b100000 %"
b100000 +"
b100000 R"
b1000 0
1)
#400
0)
#425
b11 ;
b11 ?
b1110111011001100101010100000000 :
b1110111011001100101010100000000 C"
b100010000 F
b0 t
b0 X"
b0 Y"
b1110111011001100101010100000000 n"
b1110111011001100101010101000100 8
b1110111011001100101010101000100 Q
b1110111011001100101010101000100 <
b11101110110011001010101 r
b11101110110011001010101 W"
b11101110110011001010101 Z"
b10001000 w
b10001000 )"
b11111001001000010010110011 $"
b11111001001000010010110011 *"
b101000 >"
b101000 Q"
b11101110110011001010101 D"
b11101110110011001010101 J"
b11101110110011001010101 P"
b11101110110011001010101 T"
b100000000 z"
b1001110111011001100101010 s"
b1001110111011001100101010 "#
b1110111011001100101010 p"
b1000 ]"
b1000 |"
b1000 r"
b0 q"
b0 R
b0 8"
b0 I"
b1000100 9
b1000100 7"
b0 m
b1000 l
b0 u
b1000 s
b1001 v
b100000 q
b0 U"
b1000 V"
b101000 D
b101000 9"
b100100 E
b100100 %"
b100100 +"
b100100 R"
b11101110110011001010101 /"
b11101110110011001010101 K"
b100000000 _
b100000000 `"
b1110111011001100101010100000000 Y
b1110111011001100101010100000000 ,"
b1110111011001100101010100000000 @"
b1110111011001100101010100000000 F"
b1110111011001100101010100000000 _"
b1000100 {
b1000100 3"
b10000 =
b10000 z
b100 g
b100 !"
b0 ""
b0 E"
b11101110110000000000000 ~
b11101110110000000000000 ?"
b1 6"
1y
b11 >
b11 x
b1000100000000000010010010011 '"
b1000100000000000010010010011 ("
b100110000 G
b100110000 :"
b100000 H
b100000 &"
b1001 0
1)
#450
0)
#475
0O
b10 P
b10 p
b1010010 F
b10001000 8
b10001000 Q
b10001000 <
b0 :
b0 C"
b101001 w
b101001 )"
b10001000 9
b10001000 7"
b10 i
b10 H"
b0 j
b0 B"
b1110111011001100101010101000000 n"
b100000000 r
b100000000 W"
b100000000 Z"
b110011 J
b1001 m
b11110 l
b1001 u
b11110 s
b1000 q
b1001 U"
b11110 V"
1d
1b
0c
0a
b1110111011001100101010101000100 R
b1110111011001100101010101000100 8"
b1110111011001100101010101000100 I"
b0 z"
b1010 ]"
b1010 |"
b1010 r"
b100 q"
b1110111011001100101010100000000 D"
b1110111011001100101010100000000 J"
b1110111011001100101010100000000 P"
b1110111011001100101010100000000 T"
b1001100101001000010010010011 $"
b1001100101001000010010010011 *"
b101100 >"
b101100 Q"
b11111001001000010010110011 '"
b11111001001000010010110011 ("
b1110110 G
b1110110 :"
b100100 H
b100100 &"
b10001000 {
b10001000 3"
b100000 =
b100000 z
b1001 S
b1001 o
b1001 |
b1000 g
b1000 !"
b0 h
b0 }
b11101110110011001010101 ""
b11101110110011001010101 E"
b0 ~
b0 ?"
b0 _
b0 `"
b1110111011001100101010101000100 Y
b1110111011001100101010101000100 ,"
b1110111011001100101010101000100 @"
b1110111011001100101010101000100 F"
b1110111011001100101010101000100 _"
b1110111011001100101010100000000 /"
b1110111011001100101010100000000 K"
b101100 D
b101100 9"
b101000 E
b101000 %"
b101000 +"
b101000 R"
b1010 0
1)
#500
0)
#525
b100000000 R
b100000000 8"
b100000000 I"
b101 ;
b101 ?
1O
b10001000 :
b10001000 C"
b11 P
b11 p
0L
1I
1A
b100110010 F
b10 j
b10 B"
b10000000 n"
b0 i
b0 H"
b1000100000000000 8
b1000100000000000 Q
b1000100000000000 <
b0 r
b0 W"
b0 Z"
b10011001 w
b10011001 )"
b11111001001000010010110011 $"
b11111001001000010010110011 *"
b110000 >"
b110000 Q"
b1110111011001100101010101000100 D"
b1110111011001100101010101000100 J"
b1110111011001100101010101000100 P"
b1110111011001100101010101000100 T"
1a
b11101110110011001010101010001000000000000000000000000000000000000000000000000000000000000000000 z"
b1000000000000000000000000 s"
b1000000000000000000000000 "#
b0 p"
b100 ]"
b100 |"
b100 r"
b1000 q"
0d
0b
b100000000 9
b100000000 7"
b10011 J
b11001 l
b11001 s
b100000 q
b11001 V"
b110000 D
b110000 9"
b101100 E
b101100 %"
b101100 +"
b101100 R"
b1110111011001100101010101000100 /"
b1110111011001100101010101000100 K"
b1001 ^
b1001 `
b1001 -"
b1110111011001100101010101000100 _
b1110111011001100101010101000100 `"
b10001000 Y
b10001000 ,"
b10001000 @"
b10001000 F"
b10001000 _"
b101001 {
b101001 3"
b1000 =
b1000 z
b11110 g
b11110 !"
b1001 h
b1001 }
b100000000 ""
b100000000 E"
b0 6"
0y
b10 >
b10 x
b1001100101001000010010010011 '"
b1001100101001000010010010011 ("
b101011010 G
b101011010 :"
b101000 H
b101000 &"
b1011 0
1)
#550
0)
